<?xml version="1.0"?>
<VTKFile type="PolyData" version="0.1" byte_order="LittleEndian">
  <PolyData>
    <Piece NumberOfLines="1984" NumberOfPoints="1985">
      <CellData Scalars="radius">
        <DataArray type="Float32" Name="radius" NumberOfComponents="1" format="ascii">
          0.266171 0.244668 0.244374 0.137787 0.244374 0.137787 0.222971 0.0925076 0.143754 0.137372 0.221924 0.0925076
          0.143754 0.136536 0.202345 0.0474079 0.130861 0.0916534 0.143754 0.136114 0.202345 0.0370118 0.130861 0.0899005
          0.131763 0.133095 0.202138 0.082183 0.0444193 0.130861 0.0890006 0.131313 0.127136 0.201722 0.0320222 0.0624852
          0.0800364 0.0444193 0.126174 0.0880839 0.130406 0.126174 0.200676 0.025 0.0474079 0.0624852 0.0789231 0.0410168
          0.125688 0.0861973 0.128086 0.124705 0.200255 0.0320222 0.0444193 0.0444193 0.0444193 0.0624852 0.0789231 0.0410168
          0.125198 0.0842332 0.128086 0.124705 0.177804 0.105267 0.0444193 0.0370118 0.0624852 0.0766075 0.0410168 0.123708
          0.0811225 0.127613 0.122185 0.177543 0.0370118 0.0933478 0.0320222 0.0320222 0.104592 0.0444193 0.0370118 0.0624852
          0.0754009 0.0410168 0.122697 0.0800364 0.124705 0.12167 0.176224 0.025 0.0925076 0.0320222 0.103909 0.0444193
          0.025 0.0607242 0.0715546 0.122185 0.0777808 0.123708 0.112826 0.175958 0.025 0.0370118 0.0320222 0.025
          0.0370118 0.067295 0.0916534 0.0320222 0.103217 0.0410168 0.025 0.0588662 0.0715546 0.12167 0.0766075 0.123708
          0.111629 0.174347 0.0410168 0.025 0.025 0.0370118 0.025 0.0320222 0.0370118 0.0657616 0.0916534 0.102518
          0.0370118 0.025 0.0568961 0.0715546 0.119568 0.0766075 0.114579 0.101809 0.174076 0.0410168 0.025 0.025
          0.0320222 0.025 0.0624852 0.064161 0.0370118 0.0320222 0.0657616 0.0899005 0.101092 0.0370118 0.0500911 0.067295
          0.112826 0.0741585 0.112826 0.09658 0.164064 0.0320222 0.025 0.0320222 0.0320222 0.0474079 0.0370118 0.0410168
          0.0410168 0.0474079 0.0890006 0.0370118 0.025 0.0624852 0.0624852 0.025 0.0657616 0.0890006 0.0988821 0.0370118
          0.0474079 0.067295 0.111629 0.0728775 0.112826 0.0949887 0.163761 0.025 0.025 0.025 0.0320222 0.0474079
          0.025 0.0525378 0.0370118 0.025 0.0444193 0.0370118 0.0320222 0.0410168 0.0890006 0.0588662 0.0624852 0.0657616
          0.0890006 0.0981255 0.0320222 0.0474079 0.067295 0.107893 0.0701862 0.101092 0.0941747 0.163457 0.025 0.025
          0.025 0.0320222 0.0320222 0.025 0.025 0.0701862 0.0410168 0.0525378 0.0320222 0.0410168 0.0370118 0.0880839
          0.0588662 0.0624852 0.0657616 0.0890006 0.09658 0.0444193 0.0657616 0.107247 0.067295 0.101092 0.0916534 0.148587
          0.0320222 0.0320222 0.0370118 0.0320222 0.0474079 0.025 0.0370118 0.0949887 0.0687679 0.0410168 0.0500911 0.025
          0.0370118 0.0871498 0.0588662 0.0607242 0.0657616 0.0871498 0.0949887 0.0444193 0.0657616 0.101092 0.0657616 0.09658
          0.0907846 0.13569 0.0320222 0.025 0.025 0.0320222 0.0320222 0.025 0.025 0.0320222 0.0370118 0.025
          0.025 0.025 0.0525378 0.025 0.0474079 0.0871498 0.025 0.025 0.0444193 0.0933478 0.0687679 0.0320222
          0.0410168 0.025 0.0861973 0.0568961 0.0607242 0.064161 0.0852254 0.0916534 0.0370118 0.0624852 0.0996284 0.0624852
          0.0957903 0.0899005 0.134835 0.0320222 0.025 0.025 0.025 0.025 0.025 0.0410168 0.0320222 0.0525378
          0.025 0.0410168 0.0871498 0.0444193 0.0933478 0.067295 0.025 0.0842332 0.0568961 0.0588662 0.0568961 0.0811225
          0.0907846 0.0320222 0.0624852 0.0988821 0.0568961 0.0842332 0.0880839 0.134404 0.025 0.025 0.025 0.025
          0.025 0.025 0.025 0.025 0.025 0.025 0.0370118 0.0588662 0.0370118 0.0474079 0.0410168 0.0861973
          0.0444193 0.0890006 0.064161 0.0832195 0.0525378 0.0568961 0.0568961 0.0800364 0.0880839 0.0320222 0.0588662 0.0973583
          0.054795 0.0832195 0.0811225 0.133534 0.025 0.025 0.0320222 0.025 0.025 0.0320222 0.0320222 0.0320222
          0.0320222 0.0500911 0.025 0.025 0.0568961 0.0444193 0.0410168 0.0852254 0.0444193 0.0871498 0.064161 0.0701862
          0.0474079 0.0568961 0.0568961 0.0777808 0.0871498 0.025 0.0568961 0.0957903 0.054795 0.0811225 0.0741585 0.132654
          0.0320222 0.0320222 0.025 0.025 0.0320222 0.025 0.0370118 0.0320222 0.0320222 0.025 0.025 0.0320222
          0.025 0.0568961 0.0320222 0.0474079 0.025 0.025 0.025 0.0370118 0.025 0.025 0.0568961 0.0410168
          0.0410168 0.0842332 0.025 0.0871498 0.0624852 0.0701862 0.0444193 0.054795 0.0568961 0.0766075 0.0842332 0.025
          0.0568961 0.0890006 0.0500911 0.0728775 0.0741585 0.125198 0.025 0.025 0.025 0.025 0.025 0.0370118
          0.0320222 0.025 0.0320222 0.0320222 0.0320222 0.025 0.025 0.0320222 0.0370118 0.025 0.0500911 0.0320222
          0.0474079 0.0657616 0.025 0.054795 0.025 0.0444193 0.025 0.025 0.054795 0.0370118 0.0370118 0.0800364
          0.0842332 0.0607242 0.0701862 0.0444193 0.0525378 0.054795 0.0728775 0.0832195 0.025 0.0568961 0.0852254 0.0474079
          0.0701862 0.0657616 0.124208 0.025 0.025 0.025 0.025 0.025 0.025 0.0320222 0.025 0.025
          0.025 0.025 0.025 0.025 0.0410168 0.025 0.0320222 0.0320222 0.0410168 0.0410168 0.025 0.0320222
          0.0474079 0.0474079 0.0657616 0.0525378 0.0410168 0.025 0.025 0.054795 0.0370118 0.0777808 0.0766075 0.0568961
          0.0687679 0.0410168 0.0500911 0.0525378 0.0701862 0.082183 0.025 0.0568961 0.0842332 0.0444193 0.0701862 0.064161
          0.116844 0.025 0.025 0.025 0.0320222 0.0320222 0.025 0.025 0.025 0.025 0.025 0.025
          0.025 0.0370118 0.025 0.025 0.025 0.0320222 0.025 0.025 0.0474079 0.025 0.025 0.0624852
          0.0370118 0.025 0.0410168 0.0370118 0.025 0.0444193 0.0444193 0.0657616 0.0500911 0.0410168 0.025 0.025
          0.0500911 0.0320222 0.0754009 0.0766075 0.0525378 0.067295 0.0410168 0.0474079 0.0500911 0.0701862 0.0687679 0.025
          0.0500911 0.0777808 0.0410168 0.0588662 0.0607242 0.116844 0.025 0.025 0.025 0.0320222 0.025 0.025
          0.025 0.025 0.0320222 0.025 0.025 0.0370118 0.0444193 0.025 0.0320222 0.025 0.0320222 0.0410168
          0.025 0.0607242 0.0410168 0.0320222 0.0370118 0.0444193 0.0657616 0.0474079 0.0410168 0.0444193 0.0741585 0.0687679
          0.0500911 0.0657616 0.0320222 0.0320222 0.0474079 0.0701862 0.067295 0.0474079 0.0657616 0.0370118 0.0588662 0.0568961
          0.116285 0.025 0.025 0.025 0.0370118 0.0320222 0.025 0.0320222 0.0320222 0.025 0.025 0.025
          0.0568961 0.0370118 0.025 0.025 0.0320222 0.0444193 0.054795 0.025 0.025 0.0320222 0.0410168 0.025
          0.0320222 0.0588662 0.0410168 0.025 0.0370118 0.0410168 0.0657616 0.025 0.0410168 0.0444193 0.0728775 0.0687679
          0.0500911 0.0657616 0.0320222 0.025 0.0474079 0.0687679 0.0657616 0.0444193 0.0624852 0.025 0.0568961 0.054795
          0.108532 0.025 0.0320222 0.025 0.0320222 0.025 0.025 0.025 0.025 0.025 0.0320222 0.025
          0.025 0.0370118 0.0320222 0.025 0.0320222 0.0320222 0.025 0.0320222 0.025 0.025 0.0568961 0.025
          0.0568961 0.0320222 0.025 0.054795 0.0370118 0.025 0.054795 0.0370118 0.0370118 0.0370118 0.0657616 0.0320222
          0.0444193 0.0701862 0.0687679 0.0500911 0.0607242 0.025 0.0474079 0.064161 0.0657616 0.0410168 0.054795 0.054795
          0.0444193 0.107893 0.025 0.025 0.0320222 0.025 0.0320222 0.025 0.0320222 0.025 0.0320222 0.025
          0.025 0.025 0.0410168 0.025 0.0410168 0.025 0.025 0.025 0.0320222 0.025 0.025 0.0568961
          0.054795 0.025 0.0525378 0.0320222 0.025 0.054795 0.0370118 0.0320222 0.0320222 0.064161 0.0410168 0.0701862
          0.0624852 0.0474079 0.0588662 0.025 0.0474079 0.0568961 0.0607242 0.0320222 0.0525378 0.0444193 0.0444193 0.107893
          0.025 0.025 0.025 0.025 0.025 0.025 0.0320222 0.025 0.025 0.025 0.025 0.025
          0.025 0.0320222 0.025 0.025 0.025 0.025 0.025 0.025 0.0320222 0.025 0.0320222 0.0370118
          0.025 0.0568961 0.0444193 0.0525378 0.0320222 0.025 0.054795 0.0370118 0.025 0.064161 0.0687679 0.0624852
          0.0444193 0.0568961 0.0444193 0.054795 0.054795 0.0320222 0.0525378 0.0370118 0.0370118 0.102518 0.025 0.025
          0.025 0.025 0.025 0.025 0.025 0.025 0.025 0.025 0.025 0.025 0.0320222 0.025
          0.025 0.0370118 0.0370118 0.025 0.0410168 0.0370118 0.0320222 0.0320222 0.025 0.0500911 0.025 0.0320222
          0.0568961 0.0410168 0.0474079 0.0525378 0.0370118 0.0607242 0.067295 0.0525378 0.0370118 0.0525378 0.0370118 0.0525378
          0.0500911 0.0320222 0.0410168 0.0320222 0.025 0.0949887 0.025 0.025 0.025 0.025 0.025 0.025
          0.025 0.025 0.025 0.025 0.025 0.025 0.025 0.025 0.025 0.025 0.0444193 0.0370118
          0.025 0.025 0.025 0.025 0.025 0.025 0.025 0.025 0.0320222 0.0444193 0.0410168 0.054795
          0.0320222 0.025 0.0370118 0.0320222 0.0320222 0.0410168 0.0320222 0.054795 0.0370118 0.0370118 0.0525378 0.0320222
          0.0588662 0.0607242 0.0525378 0.025 0.0444193 0.0320222 0.0474079 0.0410168 0.025 0.0370118 0.025 0.0933478
          0.025 0.025 0.025 0.025 0.025 0.025 0.025 0.0320222 0.025 0.025 0.0320222 0.025
          0.025 0.0320222 0.0320222 0.025 0.025 0.0370118 0.0370118 0.025 0.0320222 0.0410168 0.025 0.0500911
          0.025 0.025 0.0320222 0.0320222 0.025 0.0525378 0.0320222 0.0320222 0.0500911 0.0320222 0.054795 0.0568961
          0.0525378 0.0410168 0.0444193 0.0370118 0.025 0.0320222 0.082183 0.025 0.025 0.0320222 0.025 0.025
          0.025 0.0320222 0.025 0.025 0.0320222 0.025 0.025 0.025 0.025 0.025 0.025 0.0320222
          0.025 0.025 0.0607242 0.025 0.025 0.025 0.0320222 0.025 0.0370118 0.0500911 0.025 0.0320222
          0.025 0.0444193 0.025 0.025 0.0500911 0.0320222 0.0525378 0.0474079 0.0474079 0.0410168 0.0444193 0.0320222
          0.0320222 0.0741585 0.025 0.025 0.025 0.025 0.025 0.025 0.025 0.025 0.025 0.0320222
          0.025 0.025 0.025 0.025 0.0320222 0.025 0.025 0.025 0.0410168 0.0474079 0.025 0.025
          0.0568961 0.025 0.0370118 0.0500911 0.025 0.0410168 0.0500911 0.025 0.0500911 0.0444193 0.0444193 0.0320222
          0.0410168 0.025 0.025 0.0741585 0.0320222 0.025 0.025 0.025 0.025 0.0320222 0.025 0.0370118
          0.0370118 0.0370118 0.0320222 0.025 0.0320222 0.025 0.025 0.025 0.0320222 0.0444193 0.0568961 0.025
          0.0474079 0.025 0.0410168 0.0474079 0.025 0.0474079 0.0370118 0.0444193 0.0320222 0.0320222 0.025 0.0728775
          0.0320222 0.025 0.025 0.025 0.025 0.025 0.025 0.025 0.0320222 0.025 0.025 0.025
          0.025 0.025 0.0320222 0.025 0.0320222 0.0370118 0.0320222 0.025 0.0320222 0.025 0.025 0.025
          0.025 0.0320222 0.0320222 0.025 0.025 0.0410168 0.0474079 0.0444193 0.0370118 0.0370118 0.0444193 0.0370118
          0.0370118 0.025 0.025 0.064161 0.025 0.025 0.025 0.0370118 0.025 0.025 0.0320222 0.025
          0.025 0.0320222 0.025 0.0370118 0.025 0.025 0.025 0.025 0.025 0.0320222 0.025 0.025
          0.025 0.025 0.025 0.025 0.0320222 0.025 0.0370118 0.0320222 0.0444193 0.0320222 0.0320222 0.025
          0.0410168 0.0474079 0.0410168 0.0320222 0.0320222 0.0320222 0.025 0.0320222 0.0525378 0.025 0.025 0.025
          0.025 0.025 0.025 0.0370118 0.025 0.025 0.025 0.025 0.0320222 0.025 0.025 0.025
          0.025 0.025 0.0320222 0.025 0.025 0.0444193 0.025 0.025 0.025 0.0444193 0.0370118 0.0410168
          0.0320222 0.0320222 0.025 0.0320222 0.025 0.0474079 0.025 0.025 0.025 0.025 0.0320222 0.025
          0.0320222 0.025 0.0320222 0.025 0.025 0.025 0.025 0.025 0.025 0.025 0.0320222 0.025
          0.025 0.025 0.025 0.0410168 0.0444193 0.0320222 0.0410168 0.0320222 0.025 0.0474079 0.025 0.025
          0.025 0.025 0.025 0.025 0.025 0.025 0.025 0.025 0.025 0.0320222 0.025 0.025
          0.025 0.025 0.025 0.025 0.025 0.025 0.025 0.025 0.025 0.0320222 0.025 0.025
          0.025 0.025 0.0370118 0.0444193 0.025 0.025 0.025 0.0410168 0.025 0.025 0.025 0.025
          0.025 0.025 0.025 0.025 0.025 0.025 0.025 0.025 0.025 0.025 0.025 0.025
          0.0320222 0.0320222 0.025 0.0320222 0.025 0.025 0.0370118 0.025 0.025 0.025 0.025 0.0320222
          0.025 0.025 0.025 0.025 0.025 0.025 0.025 0.025 0.025 0.025 0.025 0.025
          0.025 0.025 0.025 0.025 0.0320222 0.025 0.0410168 0.025 0.0320222 0.0320222 0.025 0.025
          0.025 0.025 0.025 0.025 0.025 0.025 0.025 0.025 0.025 0.0320222 0.0320222 0.025
          0.025 0.025 0.025 0.025 0.025 0.0320222 0.0320222 0.025 0.025 0.025 0.025 0.025
          0.0320222 0.0320222 0.025 0.0370118 0.025 0.025 0.025 0.025 0.025 0.025 0.025 0.025
          0.025 0.025 0.025 0.025 0.025 0.025 0.025 0.025 0.025 0.025 0.0320222 0.025
          0.025 0.025 0.025 0.025 0.025 0.025 0.025 0.025 0.025 0.025 0.025 0.025
          0.025 0.025 0.025 0.025 0.025 0.025 0.025 0.025 0.025 0.025 0.025 0.0320222
          0.025 0.025 0.025 0.025 0.025 0.025 0.025 0.0320222 0.025 0.025 0.025 0.025
          0.025 0.025 0.025 0.025 0.025 0.025 0.025 0.025 0.025 0.025 0.025 0.025
          0.025 0.025 0.025 0.025 0.025 0.025 0.025 0.025 0.0320222 0.025 0.025 0.025
          0.025 0.025 0.025 0.025 0.025 0.025 0.025 0.025 0.025 0.025 0.025 0.025
          0.025 0.025 0.025 0.025 0.025 0.0320222 0.025 0.025 0.025 0.025 0.025 0.025
          0.025 0.025 0.025 0.025 0.025 0.025 0.025 0.025 0.025 0.025 0.025 0.025
          0.025 0.025 0.025 0.025 0.025 0.025 0.025 0.025 0.025 0.025 0.025 0.025
          0.025 0.025 0.0320222 0.025 0.025 0.025 0.025 0.025 0.025 0.025 0.025 0.025
          0.025 0.025 0.025 0.025 0.025 0.025 0.025 0.025 0.025 0.025 0.025 0.025
          0.025 0.025 0.025 0.025 0.025 0.025 0.025 0.025 0.025 0.025 0.025 0.025
          0.025 0.025 0.025 0.025 0.025 0.025 0.0320222 0.025 0.0320222 0.025 0.025 0.025
          0.025 0.025 0.025 0.025 0.025 0.025 0.025 0.025 0.025 0.025 0.025 0.025
          0.025 0.025 0.025 0.025 0.025 0.025 0.025 0.0320222 0.025 0.025 0.025 0.025
          0.025 0.025 0.025 0.025 0.025 0.025 0.025 0.025 0.025 0.025 0.025 0.025
          0.025 0.025 0.025 0.025 0.025 0.025 0.025 0.025 0.025 0.025 0.025 0.025
          0.025 0.025 0.025 0.025 0.025 0.025 0.025 0.025 0.025 0.025 0.025 0.025
          0.025 0.025 0.025 0.025 0.025 0.025 0.025 0.025 0.025 0.025 0.025 0.025
          0.025 0.025 0.025 0.025 0.025 0.025 0.025 0.025 0.025 0.025 0.025 0.025
          0.025 0.025 0.025 0.025 0.025 0.025 0.025 0.025 0.0320222 0.025 0.025 0.0320222
          0.025 0.025 0.025 0.025 0.025 0.025 0.025 0.025 0.025 0.025 0.025 0.025
          0.025 0.025 0.025 0.025 0.025 0.025 0.025 0.025 0.025 0.025 0.025 0.025
          0.025 0.025 0.025 0.025 0.025 0.025 0.025 0.025 0.025 0.025 0.025 0.025
          0.025 0.025 0.025 0.025 0.025 0.025 0.025 0.025 0.025 0.025 0.025 0.025
          0.025 0.025 0.025 0.025 0.025 0.025 0.025 0.025 0.025 0.025 0.025 0.025
          0.025 0.025 0.025 0.025 0.025 0.025 0.025 0.025 0.025 0.025 0.025 0.025
          0.025 0.025 0.025 0.025 0.025 0.025 0.025 0.025 0.025 0.025 0.025 0.025
          0.025 0.025 0.025 0.025 0.025 0.025 0.025 0.025 0.025 0.025 0.025 0.025
          0.025 0.025 0.025 0.025 0.025 0.025 0.025 0.025 0.025 0.025 0.025 0.025
          0.025 0.025 0.025 0.025 0.025 0.025 0.025 0.025 0.025 0.025 0.025 0.025
          0.025 0.025 0.025 0.025 0.025 0.025 0.025 0.025 0.025 0.025 0.025 0.025
          0.025 0.025 0.025 0.025 0.025 0.025 0.025 0.025 0.025 0.025 0.025 0.025
          0.025 0.025 0.025 0.025 0.025 0.025 0.025 0.0320222 0.025 0.025 0.025 0.025
          0.025 0.025 0.025 0.025 0.025 0.025 0.025 0.025 0.025 0.025 0.025 0.025
          0.025 0.025 0.025 0.025 0.025 0.025 0.025 0.025 0.025 0.025 0.025 0.025
          0.025 0.025 0.025 0.025 0.025 0.025 0.025 0.025 0.025 0.025 0.025 0.025
          0.025 0.025 0.025 0.025 0.025 0.025 0.025 0.025 0.025 0.025 0.025 0.025
          0.025 0.025 0.025 0.025 0.025 0.025 0.025 0.025 0.025 0.025 0.025 0.025
          0.025 0.025 0.025 0.025 0.025 0.025 0.025 0.025 0.025 0.025 0.025 0.025
          0.025 0.025 0.025 0.025 0.025 0.025 0.025 0.025 0.025 0.025 0.025 0.025
          0.025 0.025 0.025 0.025 0.025 0.025 0.025 0.025 0.025 0.025 0.025 0.025
          0.025 0.025 0.025 0.025 0.025 0.025 0.025 0.025 0.025 0.025 0.025 0.025
          0.025 0.025 0.025 0.025 0.025 0.025 0.025 0.025 0.025 0.025 0.025 0.025
          0.025 0.025 0.025 0.025 0.025 0.025 0.025 0.025 0.025 0.025 0.025 0.025
          0.025 0.025 0.025 0.025 0.025 0.025 0.025 0.025 0.025 0.025 0.025 0.025
          0.025 0.025 0.025 0.025 0.025 0.025 0.025 0.025 0.025 0.025 0.025 0.025
          0.025 0.025 0.025 0.025 0.025 0.025 0.025 0.025 0.025 0.025 0.025 0.025
          0.025 0.025 0.025 0.025 0.025 0.025 0.025 0.025 0.025 0.025 0.025 0.025
          0.025 0.025 0.025 0.025 0.025 0.025 0.025 0.025 0.025 0.025 0.025 0.025
          0.025 0.025 0.025 0.025 0.025 0.025 0.025 0.025 0.025 0.025 0.025 0.025
          0.025 0.025 0.025 0.025 0.025 0.025 0.025 0.025 0.025 0.025 0.025 0.025
          0.025 0.025 0.025 0.025 0.025 0.025 0.025 0.025 0.025 0.025 0.025 0.025
          0.025 0.025 0.025 0.025
        </DataArray>
      </CellData>
      <Points>
        <DataArray type="Float32" Name="Coordinates" NumberOfComponents="3" format="ascii">
          0 -2 0 0 0 0 -0.013313 0.999911 0 0.00156343 1.9998 0
          -0.994109 0.108389 0 0.0475147 2.99874 0 -1.93057 0.459163 0 0.0903855 3.99782 0
          0.991143 0.132798 0 1.04706 3.0289 0 -2.81118 0.932997 0 0.181027 4.99371 0
          1.85213 0.641425 0 2.01137 3.29366 0 -3.64883 1.47922 0 0.22883 5.99257 0
          -0.906574 4.07575 0 -0.79837 5.19565 0 2.75905 1.06274 0 2.93018 3.68836 0
          -4.44326 2.08657 0 0.237937 6.99252 0 -1.89417 3.91876 0 -1.72437 5.57317 0
          3.54096 1.68613 0 3.80596 4.17108 0 -5.22334 2.71225 0 0.239711 7.99252 0
          2.57765 4.62416 0 -3.99094 2.97843 0 -2.48522 6.2221 0 4.54081 1.7032 0
          4.65903 4.69288 0 -6.00582 3.33492 0 0.25167 8.99245 0 -2.77354 3.44261 0
          -6.01416 2.10021 0 2.21126 5.55462 0 -4.28915 3.93293 0 -3.15213 6.96723 0
          5.50815 1.95669 0 5.49142 5.24707 0 -6.78879 3.95698 0 0.28553 9.99188 0
          -2.58817 4.63874 0 -1.99123 7.09156 0 -6.89481 1.62644 0 2.58471 6.48227 0
          -4.24788 4.93208 0 -3.81056 7.71988 0 6.49096 2.14129 0 6.29134 5.84717 0
          -7.58559 4.56122 0 0.322604 10.9912 0 -2.39964 1.79501 0 1.09372 9.20994 0
          6.09887 4.45271 0 -1.55989 7.99375 0 -7.88426 1.77134 0 3.13345 7.31826 0
          -4.9933 5.59868 0 -4.43226 8.50314 0 7.47085 2.34087 0 7.07287 6.47104 0
          -8.39802 5.14428 0 0.372768 11.9899 0 1.3087 11.1574 0 2.01557 9.59749 0
          -1.84622 8.95188 0 -8.81927 2.12597 0 3.87549 7.98862 0 -5.73872 6.26528 0
          -5.03726 9.29936 0 8.42302 2.64643 0 7.83753 7.11547 0 -9.20195 5.73901 0
          0.422952 12.9887 0 -6.3494 4.72499 0 -0.643379 11.2498 0 4.04385 6.90452 0
          -7.88287 6.00138 0 2.20413 11.6026 0 2.91277 10.0391 0 -2.38637 9.79345 0
          -9.55915 2.7987 0 4.49685 8.77214 0 -6.54404 6.85812 0 -5.60837 10.1202 0
          9.33839 3.04903 0 8.59341 7.77018 0 -10.0009 6.34047 0 0.471752 13.9875 0
          3.57265 5.08856 0 -1.45577 11.8329 0 4.95023 6.48206 0 2.9932 12.2169 0
          3.74494 10.5936 0 -3.28 10.2423 0 -10.5329 3.0264 0 5.10558 9.56552 0
          -6.18569 10.9368 0 10.2373 3.48714 0 9.3223 8.45481 0 -10.7872 6.9582 0
          0.513972 14.9866 0 6.48049 3.14077 0 7.08583 4.61367 0 7.40312 3.33857 0
          8.99963 1.89886 0 -6.2929 7.82607 0 -9.44029 7.16858 0 -2.06747 12.624 0
          5.79551 7.01638 0 3.73505 12.8874 0 4.57711 11.1482 0 -3.58249 11.1954 0
          -11.4951 3.29867 0 5.85418 10.2285 0 -6.76113 11.7546 0 11.1442 3.90859 0
          10.0634 9.12618 0 -11.5701 7.58034 0 0.554458 15.9858 0 -3.3418 5.70608 0
          -0.702728 10.1447 0 -1.21543 6.6602 0 -9.1338 4.46706 0 2.03285 10.6243 0
          8.01564 4.98169 0 -6.97778 8.55473 0 -9.38994 8.16731 0 -2.56183 13.4933 0
          4.40181 13.6327 0 5.40928 11.7027 0 -3.02549 12.0259 0 -12.3132 3.87373 0
          6.61193 10.8811 0 -7.31607 12.5865 0 12.0381 4.35673 0 10.7903 9.81294 0
          -12.3501 8.20613 0 0.581971 16.9854 0 1.40012 13.2011 0 -8.09291 6.73178 0
          5.22453 8.34863 0 9.34927 3.93461 0 6.2065 7.92802 0 10.9296 8.62643 0
          -12.3417 6.94412 0 -4.08117 6.37939 0 -7.71001 9.23579 0 -9.7435 9.10273 0
          -3.05331 14.3641 0 5.02973 14.411 0 6.28825 12.1796 0 -13.201 4.33396 0
          7.43229 11.4529 0 -7.85334 13.4299 0 12.9398 4.7891 0 11.5242 10.4922 0
          -13.1322 8.82935 0 0.592827 17.9853 0 1.73257 4.55643 0 5.05177 1.10743 0
          5.77451 3.73888 0 -3.92374 9.17506 0 8.68346 6.58217 0 -6.01565 12.4211 0
          9.56839 9.99505 0 -8.16007 12.0502 0 -11.7493 9.00548 0 1.54084 17.2692 0
          1.78665 14.1234 0 9.85667 4.79632 0 11.8136 8.15892 0 -13.3402 6.99745 0
          -7.74914 10.235 0 -9.96034 10.0789 0 -3.54022 15.2376 0 5.61708 15.2203 0
          6.41838 13.1711 0 -14.1655 4.59826 0 8.16915 12.129 0 -8.38318 14.278 0
          13.8196 5.26452 0 12.2371 11.1935 0 -13.9107 9.45701 0 0.590876 18.9853 0
          1.7347 1.36066 0 -0.539594 12.0876 0 -7.12657 5.88097 0 3.99495 9.28002 0
          -0.452215 15.2444 0 -0.595366 6.29041 0 -6.77291 13.1568 0 4.2842 15.0775 0
          1.20801 4.10523 0 9.60562 6.96897 0 8.90324 10.7418 0 -9.12456 12.3143 0
          -11.9729 9.98017 0 2.40987 17.764 0 12.7621 8.47573 0 -14.3297 7.14206 0
          -10.4123 10.971 0 -3.94522 16.1519 0 6.22575 16.0138 0 7.13559 13.8679 0
          -14.9487 5.21995 0 8.57896 13.0412 0 -8.90779 15.1293 0 14.7036 5.73194 0
          12.9648 11.8794 0 -14.6896 10.0841 0 0.572237 19.9852 0 -3.02314 2.12821 0
          1.23666 12.0822 0 3.61312 5.99374 0 -12.1671 4.863 0 11.6717 9.39931 0
          8.95312 5.843 0 9.77588 5.78243 0 11.5832 11.95 0 -1.34882 15.6873 0
          -6.36646 14.0705 0 3.54381 15.7496 0 10.5774 6.73301 0 -11.8396 10.9712 0
          3.13352 18.4542 0 13.7423 8.67372 0 -15.3003 7.38279 0 -11.0663 11.7275 0
          -4.35296 17.065 0 6.81063 16.8249 0 -15.8686 5.61214 0 9.24376 13.7882 0
          -9.41619 15.9905 0 15.6012 6.17269 0 13.6844 12.5737 0 -15.4508 10.7327 0
          0.546257 20.9848 0 -0.987308 8.5126 0 -2.02059 10.3958 0 -5.0596 12.7143 0
          2.72995 14.4553 0 -9.33289 13.9649 0 1.77103 2.05081 0 -15.3935 9.3738 0
          -0.393275 20.2455 0 11.4439 12.9402 0 -1.86459 16.544 0 -6.14373 15.0453 0
          11.5288 6.42496 0 -12.3932 11.8041 0 3.82312 19.1784 0 14.717 8.89724 0
          -16.2656 7.64406 0 -11.637 12.5486 0 -4.69059 18.0063 0 7.37024 17.6536 0
          -16.8107 5.94753 0 9.81013 14.6123 0 -9.90235 16.8643 0 16.4695 6.66881 0
          14.4019 13.2703 0 -16.1719 11.4255 0 0.523069 21.9845 0 -5.6844 8.85387 0
          7.8208 3.96878 0 4.33827 12.5981 0 -10.7855 9.2724 0 12.416 7.3607 0
          6.2416 15.0106 0 -14.8512 6.0182 0 15.2211 4.87626 0 1.52346 20.2937 0
          11.0181 7.4415 0 3.90879 17.8225 0 -3.57494 17.6933 0 -8.57749 16.535 0
          16.1146 5.31451 0 14.3968 11.8719 0 1.5251 21.1894 0 -2.44883 11.0407 0
          -4.35955 13.4284 0 -10.2933 14.2434 0 -1.32447 20.61 0 11.7098 13.9042 0
          -2.11428 17.5123 0 -7.05633 15.4542 0 12.0946 6.09431 0 4.40899 19.9888 0
          15.5885 9.38754 0 -17.2103 7.97186 0 -12.1182 13.4253 0 -5.12353 18.9077 0
          7.95635 18.4639 0 -17.7591 6.26443 0 10.2873 15.4911 0 -10.3862 17.7395 0
          17.3021 7.22268 0 15.1094 13.9771 0 -16.8677 12.1437 0 0.490177 22.984 0
          -1.15884 3.30623 0 -3.43815 4.96462 0 1.26226 14.5299 0 3.04043 17.4876 0
          -5.30515 13.5202 0 14.548 9.88287 0 6.65453 18.352 0 13.4117 7.26904 0
          -8.1414 17.4349 0 17.0164 4.88239 0 15.327 11.5049 0 2.48508 21.4695 0
          -10.8136 15.0974 0 -2.12635 21.2075 0 12.2184 14.7653 0 -1.40474 18.217 0
          4.9291 20.8429 0 16.479 9.84254 0 -18.1085 8.41155 0 -12.7015 14.2375 0
          -5.49159 19.8375 0 8.53675 19.2782 0 -18.7169 6.5519 0 10.8614 16.3099 0
          -10.8751 18.6118 0 18.1393 7.76959 0 15.8212 14.6794 0 -17.5298 12.8931 0
          0.470732 23.9838 0 -5.12207 3.86869 0 4.54604 7.84475 0 8.59553 4.67792 0
          -3.13901 9.16954 0 1.22977 19.1475 0 6.85789 15.795 0 -4.32713 12.2349 0
          -0.782085 19.3242 0 9.06299 15.277 0 12.4346 13.8561 0 -4.2879 19.457 0
          15.9038 13.3697 0 6.22151 19.2534 0 -8.03471 18.4292 0 16.2409 11.9108 0
          3.08544 22.2692 0 -10.833 16.0972 0 -2.8771 21.8681 0 12.8961 15.5006 0
          5.42885 21.709 0 17.4334 10.1411 0 -18.9937 8.87674 0 -13.5061 14.8313 0
          -5.90326 20.7489 0 9.11704 20.0926 0 -19.609 7.00375 0 11.4119 17.1448 0
          -11.3545 19.4894 0 18.9916 8.29266 0 16.5287 15.3862 0 -18.2442 13.5929 0
          0.433676 24.9831 0 -0.307283 14.2699 0 3.14522 16.4008 0 -15.9525 9.04194 0
          10.605 14.4519 0 -6.17538 9.39546 0 13.9217 10.992 0 -7.67361 16.2409 0
          17.9991 6.50557 0 9.34256 18.7255 0 -16.9741 13.7245 0 7.81809 16.0744 0
          -3.93491 20.3926 0 16.881 13.1572 0 -8.83775 19.0252 0 17.2394 11.8568 0
          3.66293 23.0856 0 -11.7778 16.4249 0 -3.41932 22.7083 0 13.4913 16.3042 0
          5.86714 22.6079 0 18.3434 10.5558 0 -19.8732 9.3526 0 -14.21 15.5416 0
          -6.36511 21.6358 0 9.70178 20.9038 0 -20.5011 7.45559 0 11.9938 17.958 0
          -11.8271 20.3707 0 19.846 8.81232 0 17.2397 16.0893 0 -18.9308 14.3199 0
          0.399628 25.9826 0 -6.8873 2.8627 0 4.90071 3.25261 0 -9.75958 12.7724 0
          -5.67528 14.2731 0 10.6894 6.0942 0 -5.22242 17.2092 0 2.13731 19.8649 0
          14.7147 14.8959 0 -17.7423 11.6588 0 5.6754 18.1488 0 -18.6146 8.05542 0
          11.3996 15.9713 0 9.01265 16.1216 0 6.40522 21.4929 0 -6.85971 20.4569 0
          -18.9717 12.9068 0 2.46522 16.5932 0 -16.9275 9.26374 0 9.25071 17.7298 0
          -16.4744 14.5907 0 8.43075 16.8647 0 -4.29045 21.3273 0 17.8466 13.4169 0
          -8.94826 20.019 0 18.1841 12.1847 0 3.74227 24.0825 0 -12.5196 15.7543 0
          -3.80353 23.6316 0 14.1934 17.0162 0 6.30057 23.5091 0 19.1837 11.0979 0
          -20.6692 9.95794 0 -14.8095 16.342 0 -6.78749 22.5422 0 10.2789 21.7205 0
          -20.6054 8.45014 0 12.609 18.7464 0 -12.301 21.2513 0 20.5804 9.49103 0
          17.898 16.842 0 -19.6216 15.0429 0 0.357841 26.9817 0 -8.64537 3.59446 0
          -1.7639 14.096 0 -7.58952 7.49645 0 -2.45788 14.8194 0 -0.969295 14.8489 0
          -5.22028 15.429 0 -7.81488 15.1962 0 14.8684 10.4199 0 14.4106 7.31711 0
          -1.65005 22.0868 0 -3.36704 19.0671 0 5.34035 19.1547 0 16.0603 16.2697 0
          13.4233 10.4393 0 -16.0302 13.3944 0 13.2889 16.9712 0 -12.7174 19.9154 0
          20.6456 8.21183 0 16.7074 16.9359 0 1.39567 26.0714 0 -7.84305 3.15689 0
          7.16033 22.1485 0 -6.75985 19.4619 0 -19.9693 12.8378 0 -17.7321 9.85764 0
          -16.4859 15.5906 0 18.5662 14.1114 0 -8.71176 20.9907 0 19.0939 12.5997 0
          3.88045 25.0729 0 -4.11967 24.5803 0 14.7694 17.8337 0 6.70823 24.4222 0
          20.0268 11.6356 0 -21.3241 10.7137 0 -15.3323 17.1944 0 -7.20027 23.4531 0
          10.8732 22.5248 0 -21.5591 8.75083 0 13.2087 19.5466 0 -12.8149 22.1091 0
          21.3553 10.1231 0 18.5675 17.5849 0 -20.2402 15.8286 0 0.304465 27.9803 0
          -2.48238 2.8439 0 -5.15604 8.00751 0 -8.63177 7.56798 0 -3.18919 13.1498 0
          5.22206 13.4706 0 2.34795 13.2132 0 -13.3325 11.4611 0 6.94611 14.9738 0
          -3.08027 18.1057 0 7.53386 19.3042 0 7.77897 19.9307 0 12.286 16.9115 0
          18.8367 6.23135 0 -12.2882 17.2305 0 -11.1948 21.1454 0 2.7471 24.1807 0
          -5.93592 23.0665 0 -11.4881 21.8337 0 -18.9126 15.7481 0 -1.39979 23.055 0
          -15.0308 13.3596 0 -13.6103 19.4651 0 16.7142 17.9358 0 2.24318 26.5263 0
          8.16026 22.1604 0 -20.9543 13.0105 0 -18.4807 9.85513 0 -17.3207 16.1411 0
          19.4538 14.572 0 -9.47251 21.6397 0 4.19555 26.0219 0 -4.41207 25.5366 0
          15.2539 18.7085 0 7.09251 25.3454 0 20.7906 12.2811 0 -22.0566 11.3944 0
          -15.9045 18.0146 0 -7.65601 24.3432 0 11.4508 23.341 0 -22.3333 9.38389 0
          13.8525 20.3118 0 -13.3363 22.9624 0 22.0983 10.7923 0 19.199 18.3603 0
          -20.8369 16.6311 0 0.262439 28.9794 0 4.38988 5.22476 0 0.88008 10.1373 0
          7.92511 1.92014 0 -9.86661 3.90604 0 12.6831 3.59255 0 -0.330507 15.88 0
          9.96358 7.7157 0 4.38363 18.9805 0 -10.2118 19.3601 0 -10.59 20.1341 0
          -0.737152 13.5888 0 -19.6379 9.94337 0 10.5935 20.4512 0 -18.3932 11.7104 0
          4.92486 18.2096 0 -19.0924 11.9142 0 -15.4888 14.4215 0 21.2593 8.30588 0
          -20.0157 11.8389 0 -3.24858 25.0714 0 -20.8592 11.5991 0 -8.15453 23.1541 0
          -0.694775 27.9413 0 -13.2366 17.5474 0 1.7999 24.5014 0 -11.1673 22.7809 0
          -18.8493 16.7461 0 -14.4914 13.9292 0 -14.5649 19.7629 0 16.7209 18.9358 0
          2.1498 27.5219 0 8.84789 22.8865 0 -21.822 13.5075 0 -19.1579 10.5909 0
          -17.8488 16.9903 0 20.3323 15.0497 0 -9.18525 22.5976 0 4.51816 26.9685 0
          -4.79336 26.4611 0 15.752 19.5756 0 7.51139 26.2534 0 21.5236 12.9613 0
          -22.8153 12.0458 0 -16.5146 18.8069 0 -8.07821 25.2497 0 12.0565 24.1368 0
          -22.8624 10.2324 0 14.5452 21.0331 0 -13.9149 23.778 0 22.9882 11.2486 0
          19.833 19.1336 0 -21.3023 17.5162 0 0.220238 29.9785 0 -4.24588 9.83862 0
          3.10162 8.95656 0 -2.75166 16.3841 0 1.15585 22.2402 0 -5.93566 13.4718 0
          15.7433 12.7512 0 14.4131 15.455 0 -15.4604 16.1716 0 -2.61589 19.1678 0
          -21.1527 15.4197 0 17.6148 18.2543 0 13.3396 21.1703 0 20.1037 17.9342 0
          -21.6755 16.0864 0 -10.7184 4.42988 0 -9.94723 20.6556 0 11.4968 20.8801 0
          -2.47856 25.7094 0 -8.94858 23.762 0 -1.66595 28.1796 0 -10.9063 23.7462 0
          -18.9587 17.7401 0 -14.9638 20.6799 0 17.3347 19.7253 0 2.59963 28.415 0
          9.14866 23.8402 0 -22.563 14.179 0 21.1537 15.62 0 4.82566 27.92 0
          -5.17562 27.3851 0 16.3396 20.3848 0 7.95146 27.1514 0 22.3314 13.5508 0
          -23.5076 12.7674 0 -17.1957 19.539 0 -8.4771 26.1667 0 12.6287 24.9568 0
          15.1551 21.8255 0 -14.4716 24.6087 0 23.5534 12.0735 0 20.4312 19.9349 0
          -21.6484 18.4544 0 0.178956 30.9776 0 -6.07267 5.43988 0 -7.33305 11.6007 0
          -12.2185 6.26887 0 9.24274 11.6824 0 16.3199 7.40126 0 -4.31333 14.0745 0
          12.9638 14.5766 0 17.8427 9.22865 0 12.9241 9.87607 0 -5.19062 7.42686 0
          -8.29144 8.0807 0 10.6391 23.9251 0 -14.2617 22.5835 0 21.5591 8.92423 0
          -2.54504 24.3608 0 -13.9068 18.1782 0 -5.78255 26.3144 0 -14.769 23.2578 0
          -2.4459 18.5628 0 -21.9787 15.2294 0 13.0973 22.1404 0 21.0578 18.2337 0
          -22.6617 16.2522 0 -2.832 26.3382 0 -2.13148 29.0647 0 -10.9408 24.7456 0
          -19.3315 18.668 0 -15.8343 21.1721 0 17.8968 20.5523 0 3.06106 29.3022 0
          10.1485 23.8568 0 -23.4485 14.6438 0 21.9873 16.1724 0 5.14177 28.8687 0
          -5.48141 28.3372 0 16.79 21.2776 0 8.39115 28.0496 0 23.0018 14.2928 0
          -23.5873 13.7642 0 -17.7647 20.3614 0 -8.8686 27.0869 0 13.1717 25.7966 0
          15.6944 22.6676 0 -14.922 25.5016 0 24.2892 12.7507 0 20.9903 20.764 0
          -21.9759 19.3993 0 0.128501 31.9764 0 -0.586787 1.22092 0 1.21948 8.19266 0
          1.29853 5.82041 0 -8.26409 11.4333 0 -4.04292 18.3812 0 4.71341 12.1272 0
          4.55858 22.9803 0 -13.3441 20.6946 0 -16.0568 16.8018 0 -5.65629 23.6414 0
          -1.0067 23.8231 0 20.2037 13.9871 0 -12.9914 23.6879 0 -14.9091 14.6956 0
          -13.7864 13.5269 0 -15.0785 19.027 0 19.8957 15.9494 0 -4.04007 27.1187 0
          -22.5076 12.7115 0 13.0198 23.951 0 -1.81723 19.6048 0 -0.820127 31.0205 0
          18.4653 8.94178 0 10.8671 24.8988 0 -14.3272 21.6542 0 -6.68861 25.8913 0
          -15.7567 23.4143 0 22.039 18.4267 0 -23.5456 16.7198 0 -2.72004 29.8731 0
          -11.7227 25.3691 0 -16.8147 21.3691 0 18.5906 21.2725 0 3.32557 30.2666 0
          -24.4056 14.9335 0 22.8737 16.6353 0 5.50641 29.7999 0 -5.81613 29.2795 0
          17.4604 22.0196 0 8.85877 28.9335 0 23.6688 15.0378 0 -18.3643 21.1617 0
          -9.23832 28.016 0 13.7548 26.609 0 16.2869 23.4732 0 -15.3422 26.409 0
          21.4606 21.6466 0 -22.3602 20.3225 0 0.0679064 32.9745 0 -1.809 1.20028 0
          -1.51154 2.15849 0 -12.6218 5.42249 0 -15.6828 6.94978 0 -11.6161 14.0891 0
          -0.571475 18.7699 0 4.65134 24.112 0 -21.4855 9.79855 0 -5.33987 16.0074 0
          13.9822 18.4505 0 -14.0768 12.1289 0 -20.8051 18.9919 0 -6.5465 26.9597 0
          20.9114 18.8899 0 -14.0484 25.9881 0 24.4081 13.7145 0 -22.9742 19.3408 0
          1.87652 7.61045 0 -5.74908 24.6371 0 20.3711 13.3394 0 -3.62587 28.0289 0
          -1.42475 31.817 0 10.5331 25.8413 0 -14.0725 21.1322 0 -16.6877 23.7792 0
          22.7896 19.0875 0 -23.4506 17.7153 0 -3.20412 30.7482 0 -11.9253 26.3483 0
          -17.0573 22.3392 0 18.9858 22.1911 0 3.54629 31.2419 0 23.7728 17.0731 0
          5.84118 30.7422 0 -6.117 30.2332 0 17.6723 22.9969 0 9.33411 29.8133 0
          24.6232 15.3364 0 -18.9814 21.9486 0 -9.59624 28.9497 0 14.2524 27.4764 0
          16.6694 24.3972 0 -15.7117 27.3383 0 21.7241 22.6112 0 -22.381 21.3223 0
          0.0389814 33.9741 0 5.72033 8.93917 0 -8.38579 13.2044 0 11.0677 11.6509 0
          -14.9264 11.5842 0 -6.04577 18.5211 0 12.6834 12.9702 0 2.65891 20.2373 0
          -17.4539 11.0591 0 15.4444 10.7222 0 6.09686 24.8229 0 -14.7422 12.8518 0
          3.44507 26.4476 0 -19.7516 11.1943 0 -23.2696 11.5229 0 2.51282 8.48642 0
          -10.9177 5.38281 0 -18.413 19.0634 0 14.0198 23.9463 0 22.3728 17.5923 0
          -8.33767 28.4505 0 22.3602 21.2099 0 -6.19962 16.5181 0 -7.31423 27.6005 0
          -13.5967 26.7914 0 -23.8435 19.8227 0 -2.2011 32.4473 0 10.3066 26.8153 0
          -17.6177 24.1467 0 23.7164 19.463 0 -24.0552 18.5118 0 -3.72971 31.5989 0
          -12.3487 27.2543 0 19.7215 22.8684 0 3.7764 32.2151 0 6.20856 31.6723 0
          -6.47217 31.168 0 18.5073 23.5472 0 9.83582 30.6783 0 -19.6737 22.6702 0
          -10.0349 29.8484 0 14.5995 28.4142 0 17.2133 25.2363 0 -16.0509 28.279 0
          21.3774 23.5492 0 -22.0475 22.265 0 -0.00628702 34.9731 0 4.28051 6.08766 0
          -10.9821 13.0948 0 15.7652 4.42326 0 -0.198873 22.9688 0 8.53571 20.9063 0
          -16.1279 8.44264 0 18.7706 10.1635 0 18.1244 15.623 0 9.80118 16.7366 0
          -13.3243 16.2557 0 -0.72891 22.0914 0 -21.7039 11.8987 0 1.79888 22.2569 0
          -11.3684 4.1924 0 -9.95533 24.9155 0 7.53077 28.5592 0 -21.1963 19.9017 0
          -1.13099 24.5205 0 -4.87907 29.6287 0 -10.1444 28.1321 0 15.5943 24.1946 0
          15.1985 27.1526 0 -21.382 21.3679 0 1.0381 34.016 0 -7.66177 29.1875 0
          -13.8682 27.7538 0 -2.59773 33.3652 0 10.2721 27.8147 0 -18.2215 24.9438 0
          -4.24182 32.4578 0 -12.3577 28.2542 0 3.89678 33.2078 0 6.52122 32.6221 0
          -6.79407 32.1148 0 18.2902 24.5234 0 10.2325 31.5963 0 -19.929 23.637 0
          -10.4152 30.7733 0 14.9199 29.3615 0 17.4615 26.205 0 -16.0311 29.2788 0
          20.8955 24.4254 0 -21.4232 23.0462 0 -0.0619603 35.9715 0 3.56699 11.9049 0
          -11.4494 8.15551 0 12.729 5.47878 0 9.15716 12.8713 0 -3.44418 21.6038 0
          2.51387 19.2625 0 -18.612 7.47934 0 -4.84227 14.7812 0 11.5817 22.257 0
          7.68311 15.1597 0 -10.6055 21.2044 0 -16.7356 17.6016 0 7.64298 1.39347 0
          10.4714 19.7913 0 1.94752 25.2666 0 -22.2979 10.5854 0 9.00481 24.6075 0
          9.89555 11.7638 0 -1.99959 26.8923 0 1.67731 8.73041 0 0.953451 6.31315 0
          -13.2699 21.2769 0 18.0357 21.9815 0 19.5843 21.9671 0 -15.2323 12.4412 0
          23.125 20.9862 0 -18.228 23.3545 0 -7.47013 31.1042 0 -17.0036 27.9751 0
          -0.992845 35.1365 0 1.83155 23.2563 0 6.96085 27.7375 0 -20.3863 20.4881 0
          -11.1436 28.1727 0 16.1086 27.5668 0 2.02468 34.1793 0 -13.9894 28.7464 0
          -2.98121 34.2888 0 11.0174 28.4814 0 -18.5999 25.8695 0 -4.67205 33.3605 0
          -12.3098 29.2531 0 3.97346 34.2049 0 6.84031 33.5699 0 -7.0308 33.0863 0
          19.259 24.771 0 10.7472 32.4537 0 -20.3114 24.561 0 -10.789 31.7008 0
          15.2343 30.3108 0 18.1345 26.9446 0 -15.4994 30.1257 0 20.2114 25.1548 0
          -0.0879998 36.9712 0 6.12645 1.17075 0 -7.2206 17.6641 0 -0.196943 24.0644 0
          10.0841 18.7257 0 7.08123 20.7798 0 5.01865 26.1621 0 -4.38715 10.4954 0
          -1.55661 25.8545 0 16.0499 8.06161 0 -14.4793 17.6889 0 -1.57816 29.5839 0
          -16.0403 22.811 0 19.2881 21.1275 0 20.7213 22.0826 0 -7.03136 28.349 0
          0.961092 35.2264 0 19.1602 9.73689 0 1.33542 33.0612 0 14.0498 29.8543 0
          -16.8303 29.8798 0 9.03648 25.607 0 -8.46053 31.2424 0 -17.8886 27.5096 0
          -1.81252 35.7093 0 -20.2825 21.1585 0 -11.4074 28.7527 0 16.7794 28.3085 0
          2.20265 35.1633 0 -13.6709 29.6943 0 -3.43043 35.1822 0 12.0174 28.4713 0
          -18.74 26.8596 0 -5.54924 33.8407 0 -12.4194 30.247 0 4.32528 35.1409 0
          7.14382 34.5227 0 -7.3278 34.0412 0 11.2261 33.3315 0 -11.1573 32.6305 0
          15.0052 31.2842 0 19.0803 27.2695 0 -15.1272 31.0538 0 -0.105308 37.971 0
          0.631863 1.14213 0 2.68581 2.45476 0 -12.6965 13.2714 0 5.82448 19.9337 0
          2.10708 15.8202 0 15.6698 16.7994 0 14.5804 19.091 0 -19.6047 16.9403 0
          -9.75352 22.8645 0 -13.4031 5.91241 0 -5.42743 25.1199 0 -14.303 20.5882 0
          22.2285 23.1895 0 5.57148 25.4147 0 24.362 18.6993 0 -19.209 24.3146 0
          -19.9556 20.0991 0 -14.4463 29.2486 0 11.3335 29.4302 0 0.911504 37.0027 0
          5.99014 26.3992 0 -0.880544 26.5914 0 16.5339 8.72894 0 2.15098 32.4825 0
          13.2959 30.5112 0 -9.26266 31.8396 0 -2.18851 36.6359 0 17.0081 29.282 0
          2.41548 36.1404 0 -13.8151 30.6839 0 -3.92653 36.0505 0 12.1922 27.4867 0
          -19.7386 26.8063 0 -5.62212 34.838 0 -12.6062 31.2294 0 4.52582 36.1206 0
          7.56414 35.4301 0 -7.61433 34.9993 0 11.6501 34.2372 0 -11.3394 33.6138 0
          14.4447 32.1124 0 -14.6823 31.9494 0 -0.145535 38.9702 0 1.16734 4.9186 0
          6.04261 13.8444 0 -12.58 10.3091 0 -17.6984 7.28098 0 14.9574 7.95554 0
          8.7291 21.8339 0 -0.802204 28.7951 0 3.73194 27.4885 0 14.277 21.6648 0
          -8.76862 10.7887 0 -6.61403 24.8292 0 -23.9598 11.5818 0 9.56959 26.9579 0
          -4.26783 28.9401 0 11.2241 31.4671 0 -20.1511 25.5481 0 -8.71563 30.2755 0
          3.50648 35.715 0 8.12305 34.3199 0 -1.10177 38.055 0 -19.8151 17.7005 0
          11.6032 30.3931 0 1.43473 37.8549 0 12.9863 31.4621 0 -9.1095 32.8278 0
          -2.6801 37.5068 0 2.77775 37.0725 0 -4.44381 36.9063 0 -5.96732 35.7766 0
          -13.009 32.1447 0 4.70097 37.1052 0 7.90692 36.3695 0 -7.97888 35.9305 0
          11.7977 35.2262 0 -11.4546 34.6071 0 13.4482 32.1949 0 -13.9821 32.6634 0
          -0.199429 39.9688 0 -4.76751 23.3656 0 -1.60224 14.9522 0 12.2483 23.1857 0
          22.2867 12.3598 0 -17.3923 18.4282 0 -12.3746 23.7281 0 19.5039 16.8694 0
          14.6328 26.1304 0 -4.64991 30.4935 0 -17.5182 25.6547 0 8.20229 24.6447 0
          -18.6502 22.8523 0 6.03597 34.164 0 2.02223 31.4908 0 -10.4637 34.0965 0
          8.82252 27.1378 0 9.04217 33.9259 0 -1.76858 38.8003 0 2.00745 38.6746 0
          -9.85459 33.4947 0 -3.10832 38.4104 0 3.13856 38.0051 0 -4.91255 37.7896 0
          -6.25681 36.7337 0 -12.8204 33.1268 0 4.93349 38.0778 0 8.21135 37.322 0
          -8.23694 36.8966 0 10.9026 35.6719 0 -10.9615 35.477 0 -13.706 33.6245 0
          -0.241254 40.9679 0 -5.23598 1.477 0 -9.87279 18.0882 0 17.197 7.8573 0
          -9.00739 17.8706 0 11.4254 13.88 0 -7.81465 20.7537 0 19.2632 15.2257 0
          11.9179 20.4298 0 -9.79916 26.7207 0 -24.9269 15.4757 0 -13.1949 25.8237 0
          -17.9999 19.5789 0 14.4426 23.1457 0 20.2196 23.4499 0 4.44572 32.442 0
          19.2933 23.7392 0 -20.2747 22.5462 0 7.49525 32.3957 0 10.2284 12.5542 0
          -8.34799 34.7948 0 12.6463 34.3244 0 5.70084 37.0889 0 8.87315 36.1118 0
          -1.1973 40.034 0 19.4128 17.5341 0 15.5118 26.0448 0 -16.5285 25.798 0
          7.56743 24.4262 0 -9.84667 34.8835 0 -2.04435 39.7615 0 2.46723 39.5627 0
          -3.47249 39.3418 0 -5.29246 38.7147 0 -6.44565 37.7157 0 5.24049 39.0295 0
          8.04709 38.3084 0 -8.53248 37.8519 0 10.547 36.6066 0 -13.0278 34.3594 0
          -0.168086 41.9652 0 3.58351 3.14211 0 9.02605 9.69836 0 5.72226 16.8778 0
          -2.66076 20.5745 0 1.04735 24.2765 0 -7.73737 19.209 0 11.0389 5.36898 0
          7.42773 22.6834 0 19.2989 7.10154 0 -23.515 15.3629 0 -21.9034 12.6932 0
          11.0453 26.239 0 23.8221 20.0659 0 9.04445 31.2897 0 -11.3436 30.7528 0
          2.18807 18.6014 0 -13.6487 21.7211 0 2.52102 33.8131 0 10.2421 18.0132 0
          -18.83 27.589 0 -9.72406 23.4716 0 -20.0161 19.4947 0 -15.1958 32.3801 0
          11.7477 31.7832 0 5.90343 35.0035 0 9.96266 34.3167 0 1.46052 39.3001 0
          -9.20887 36.6613 0 -1.16868 41.3419 0 8.01479 31.5413 0 13.0451 33.5659 0
          7.48942 23.4292 0 -2.45339 40.674 0 2.76496 40.5173 0 -3.81427 40.2816 0
          -5.8444 39.5485 0 -6.97852 38.5619 0 5.27198 40.029 0 7.50816 39.1508 0
          -9.10306 38.6732 0 -0.113648 42.9637 0 1.29275 18.0054 0 12.0479 9.89105 0
          3.31558 13.7994 0 -5.3379 17.9115 0 16.32 14.2047 0 2.90257 12.9974 0
          1.02568 31.0639 0 -13.3801 19.0282 0 13.7382 22.3156 0 -19.512 21.7011 0
          -23.3081 21.5915 0 15.3928 28.4897 0 -7.30842 30.0015 0 9.59706 31.9727 0
          -6.53193 17.4589 0 12.7642 29.1364 0 -8.87787 33.4638 0 -12.0533 34.7119 0
          -4.02971 38.3823 0 6.20122 37.4349 0 0.831634 41.9889 0 -3.24137 20.8261 0
          1.00748 38.9193 0 -9.98161 37.2961 0 -1.75985 42.1485 0 -2.7823 41.6184 0
          2.7782 41.5172 0 -4.17401 41.2146 0 -6.12649 40.5079 0 -7.35203 39.4896 0
          5.58003 40.9803 0 7.40604 40.1455 0 -0.112795 43.9637 0 6.65757 1.56922 0
          -5.76959 4.78274 0 -7.53543 8.33149 0 -10.4764 8.69195 0 16.4576 10.6265 0
          -19.5578 7.79067 0 -20.3934 14.407 0 19.3379 12.0712 0 -22.1019 17.4495 0
          -15.3837 24.3999 0 13.7838 14.2557 0 4.45403 29.5947 0 -17.151 20.9018 0
          23.2633 15.9655 0 -17.2558 10.4612 0 18.8847 23.0545 0 18.3868 25.3399 0
          8.79417 32.9572 0 -12.6127 25.3335 0 13.6116 33.4089 0 -9.26183 33.8948 0
          1.44361 42.7798 0 -2.24587 43.0224 0 -3.06454 42.5777 0 3.09967 42.4641 0
          -4.68341 42.0751 0 5.21552 41.9115 0 -0.0378059 44.9609 0 9.52461 2.19427 0
          2.91181 15.5857 0 -0.692421 9.12899 0 -15.3846 8.79604 0 -10.5699 16.8195 0
          -14.9342 15.3013 0 5.191 23.5827 0 24.7549 17.2613 0 -10.4717 12.7441 0
          -9.34159 25.1773 0 15.9858 24.7789 0 -1.69817 34.4276 0 3.38556 34.5153 0
          -10.2966 32.2188 0 -1.00097 29.5461 0 20.3281 21.4569 0 -6.79568 29.0317 0
          8.61096 26.2669 0 24.4331 17.8608 0 5.80099 27.2568 0 -1.67929 37.5291 0
          -4.20804 30.9564 0 -10.2648 26.0288 0 11.6514 26.18 0 6.23521 35.49 0
          1.26653 41.5015 0 17.176 10.9544 0 19.1149 26.0254 0 1.72799 43.7385 0
          -2.02808 43.9984 0 -3.34677 43.5371 0 3.44101 43.4041 0 -4.45254 43.0481 0
          -0.0505495 45.9608 0 7.69206 13.6098 0 17.5193 5.7617 0 4.84274 2.60508 0
          -5.03978 21.1075 0 6.91837 26.6824 0 -0.46283 32.1994 0 13.3515 18.2644 0
          22.3742 22.4786 0 -24.3577 19.096 0 5.74916 33.165 0 -19.3468 25.9561 0
          -2.76434 35.607 0 0.405863 41.2717 0 -15.9665 25.5245 0 5.23494 17.2121 0
          5.3279 35.3124 0 1.32552 40.0738 0 3.70384 40.2816 0 -1.33718 33.495 0
          1.85209 44.7307 0 -3.05248 44.4928 0 3.14737 44.36 0 -0.232508 46.9441 0
          8.01832 8.58827 0 7.12756 8.02754 0 -12.4746 12.3895 0 -4.96838 20.1966 0
          18.6885 18.8293 0 -3.36978 25.6392 0 4.18924 28.499 0 21.5429 20.5712 0
          -16.5896 16.459 0 -11.4903 14.6539 0 5.22976 24.3557 0 -23.4463 10.9266 0
          10.6367 30.5196 0 17.4538 27.8277 0 -14.9621 28.8051 0 17.8542 29.8149 0
          -9.05382 9.99697 0 -3.55031 29.3542 0 8.00557 33.5847 0 4.28447 38.3902 0
          11.1704 27.0131 0 4.00985 42.5093 0 1.80261 41.1757 0 -2.03716 44.8772 0
          1.84269 45.7307 0 -0.627116 47.863 0 7.37227 10.2316 0 -13.7317 3.49 0
          3.4386 25.5022 0 12.3467 2.92903 0 11.9567 21.3708 0 22.3549 15.0554 0
          21.2839 19.5581 0 9.53791 27.8255 0 4.7039 33.3605 0 -11.2301 27.2264 0
          -3.72262 34.0956 0 4.7762 34.2691 0 -4.40884 35.0976 0 8.99235 38.6347 0
          0.594184 43.1232 0 -10.7782 25.5754 0 17.7525 10.9722 0 0.602021 46.2748 0
          7.34296 9.32576 0 18.0939 28.5959 0 -1.7721 45.8414 0 0.264655 48.3155 0
          9.09273 7.4802 0 -7.26489 2.29294 0 8.59013 17.4483 0 -10.0994 21.9806 0
          21.2783 13.6154 0 -5.11574 31.2597 0 -7.12412 37.0292 0 9.91771 35.7306 0
          6.22315 38.8441 0 8.83972 32.1109 0 -20.092 13.8329 0 -2.21078 34.7761 0
          12.1841 26.6714 0 0.979742 47.6164 0 3.11306 0.57621 0 7.07669 5.26431 0
          8.02595 5.70592 0 -13.793 8.14975 0 -17.3631 14.2645 0 -0.163362 26.1537 0
          14.6362 16.6108 0 20.7227 11.1228 0 23.6859 11.1302 0 12.7457 21.2278 0
          22.2187 8.95018 0 18.4806 20.1679 0 20.4533 16.3318 0 7.19336 29.3406 0
          -3.37368 33.3045 0 -21.343 23.8094 0 9.68946 24.9459 0 10.1955 33.2255 0
          -21.0528 24.8029 0 -11.9497 31.617 0 3.90583 36.5084 0 -3.46457 37.3382 0
          8.55483 30.967 0 2.04638 42.3185 0 -11.0605 17.1844 0 -5.52164 21.6155 0
          -5.77778 32.0091 0 6.28276 11.3739 0 10.5708 10.5608 0 8.72619 3.9449 0
          17.3219 14.9781 0 -7.5287 22.3499 0 15.0215 6.84773 0 15.6478 17.7749 0
          -12.3792 18.0354 0 17.3183 23.6007 0 22.4331 20.3729 0 18.155 14.9517 0
          -17.2684 28.5378 0 14.6656 19.8832 0 9.97843 13.1088 0 -4.88122 39.1387 0
          -19.4658 21.0724 0 -21.118 14.13 0 4.58324 16.8398 0 8.09029 9.86893 0
          9.52954 37.7913 0 -11.5908 17.7628 0 -12.3742 22.8037 0 -14.0947 11.0057 0
          13.2406 3.45058 0 17.3412 8.89309 0 -14.611 18.5755 0 13.6198 28.1696 0
          2.971 35.4219 0 -8.90916 34.9241 0 10.7952 17.8435 0 -9.92084 24.0856 0
          12.6044 33.1367 0 17.1351 14.1043 0 15.762 29.153 0 6.58074 29.9008 0
          -2.81358 7.54431 0 -12.8603 9.50446 0 -7.24595 10.7697 0 -1.4406 10.7135 0
          4.53339 25.0888 0 -17.5273 17.5277 0 -8.53189 22.4968 0 -21.4238 22.097 0
          19.1787 9.1359 0 -4.74489 22.7475 0 16.2809 26.5259 0 -9.11151 35.9783 0
          -5.18141 4.70533 0 0.644347 44.9103 0 19.6176 26.3135 0 4.63902 39.9275 0
          4.11553 41.7614 0 1.22493 46.7645 0 -5.91261 32.6685 0 10.912 2.74898 0
          -13.7454 10.1969 0 -16.6734 6.61076 0 -8.12763 2.65051 0 -11.0594 13.903 0
          -11.5297 5.54173 0 17.0454 26.6214 0 6.14204 20.5207 0 -5.66835 36.9756 0
          11.5287 5.03935 0 8.17555 23.3307 0 1.42263 30.5722 0 10.0708 2.54906 0
          3.64341 39.4355 0 6.80955 9.04217 0 -8.36583 21.8055 0 1.19635 16.0686 0
          -12.8135 7.73909 0 5.97799 28.6454 0 -0.901125 1.94046 0 5.05915 31.2851 0
          -0.691527 34.1189 0 12.5373 12.413 0 12.1245 22.4662 0 -15.5351 11.8928 0
          12.1222 19.64 0 20.2088 7.08552 0 2.69926 42.9092 0 5.15626 42.6349 0
          4.534 43.2765 0 -1.19151 45.7557 0 3.74742 2.29345 0 6.43671 17.2665 0
          3.02125 21.1305 0 -8.38182 16.9469 0 -4.81212 24.3692 0 -13.092 24.2897 0
          -6.39847 27.521 0 -1.95609 30.0765 0 -8.0394 33.843 0 -9.61022 29.8286 0
          -9.24848 37.7736 0 -24.0879 15.7879 0 -6.57563 39.0673 0 -8.60891 39.0855 0
          -12.183 34.0755 0 14.2634 13.9248 0 7.74873 12.9419 0 0.908031 40.5629 0
          -14.6983 28.1744 0 -4.90922 34.7841 0 -18.0586 14.8085 0 16.124 29.643 0
          7.56734 14.2784 0 -2.27711 28.0054 0 2.46951 20.7893 0 -10.3985 28.7189 0
          -0.632142 36.0794 0 -18.8386 23.6018 0 -3.47173 36.4215 0 11.7285 31.0997 0
          -17.8666 26.2032 0 -20.5258 22.0007 0 21.923 19.5558 0 10.3597 13.6537 0
          -2.55887 8.25862 0 7.36855 16.6754 0 -2.768 17.389 0 -2.41533 22.6351 0
          -9.41699 18.8112 0 -15.9879 12.7736 0 6.52532 25.7785 0 10.196 29.6911 0
          21.1212 25.0337 0 -7.71159 31.8772 0 20.3742 25.853 0 -8.48232 32.7957 0
          9.45335 36.7246 0 -22.8033 15.4508 0 6.3325 41.2683 0 -16.1213 24.4546 0
          -12.1295 14.8143 0 2.02854 46.3071 0 -0.0586127 49.1362 0 6.28216 38.2537 0
          -14.3685 8.58075 0 1.64533 29.9621 0 11.3112 19.2723 0 -1.2624 17.0321 0
          14.7469 4.19744 0 -13.7499 17.1729 0 20.1122 17.3344 0 -14.8063 26.9826 0
          6.38353 27.9424 0 -16.2895 26.412 0 -2.26964 20.1463 0 -10.4958 36.9783 0
          -22.5721 18.1794 0 -1.30417 36.798 0 2.39454 44.9976 0 -20.7678 23.8032 0
          -0.292452 25.2808 0 -8.3294 20.1243 0 9.61837 22.5156 0 13.2362 24.7153 0
          9.53365 28.6937 0 9.82914 19.7134 0 2.45483 23.4763 0 6.90202 22.9648 0
          -4.75341 40.2517 0 19.1175 20.2519 0 20.7683 17.2985 0 -11.0842 2.44099 0
          18.4547 16.3562 0 -18.2395 15.8877 0 -3.73705 14.2199 0 13.5814 29.4306 0
          15.7623 31.6379 0 8.72288 34.9573 0 8.04944 32.6986 0 18.8821 19.4523 0
          -12.5568 18.6094 0 -3.30385 17.0627 0 7.09577 37.9732 0 -2.30605 11.8456 0
          -8.42788 9.37182 0 -6.16993 19.3444 0 -20.3755 17.1095 0 -0.493286 30.1833 0
          -3.15023 28.5692 0 -3.23632 31.9381 0 14.9797 24.4659 0 -13.7107 31.4005 0
          -5.86122 1.21028 0 -12.6177 34.9597 0 -16.7736 20.2882 0 6.70268 35.9371 0
          20.9925 14.2127 0 -2.08549 30.9135 0 16.4421 31.0032 0 -3.39476 3.6617 0
          5.20103 10.8236 0 -5.04352 6.10758 0 1.09582 28.0739 0 23.924 14.2322 0
          -16.8729 27.225 0 12.8409 27.4923 0 -6.91271 35.933 0 7.89635 25.2742 0
          2.60504 30.9266 0 -10.5485 36.0294 0 -11.451 29.9589 0 12.7574 29.8338 0
          -6.90811 40.0807 0 2.86901 25.6805 0 22.7465 9.7995 0 17.3496 24.1959 0
          -18.2277 28.7802 0 -9.578 14.7547 0 -17.1281 5.07537 0 -1.73585 3.15465 0
          3.64013 17.1133 0 11.5702 15.4024 0 -6.62872 23.7735 0 -9.06868 26.1932 0
          -7.07526 25.4215 0 3.97168 30.172 0 2.53967 38.4131 0 -11.4279 35.8566 0
          10.5544 34.3046 0 -5.95443 41.493 0 -5.19084 21.8525 0 -2.89286 36.5401 0
          -4.3425 1.17714 0 -10.2921 7.67776 0 4.51712 15.7047 0 20.0755 10.0868 0
          -14.0088 16.2656 0 8.24984 9.31474 0 -16.1036 19.8034 0 -1.20484 12.3611 0
          18.5293 11.6584 0 1.51568 36.5899 0 15.0378 32.5306 0 -6.09062 38.2632 0
          7.53178 31.1286 0 3.5585 37.0831 0 1.41362 28.7209 0 5.11003 4.17891 0
          -5.4857 11.5702 0 -0.508187 8.14542 0 -6.77407 9.29999 0 16.4421 22.3387 0
          24.0667 16.5235 0 1.83507 15.1746 0 -12.2882 24.3767 0 -7.5319 19.8824 0
          -1.32653 44.9287 0 -7.4651 36.4845 0 10.1234 37.3583 0 3.75886 21.3133 0
          3.03771 38.8208 0 -9.89118 5.41489 0 13.7237 6.07358 0 6.70581 19.6984 0
          21.9131 9.88153 0 21.7448 11.2515 0 -19.7861 10.5 0 -15.9718 6.40116 0
          10.6075 13.0039 0 -0.733755 42.0708 0 10.6853 4.78737 0 3.14801 33.8484 0
          3.59896 28.716 0 7.48245 29.9045 0 -13.5156 10.7251 0 18.3658 12.9781 0
          5.33821 12.8084 0 -24.3466 12.875 0 13.2342 22.7943 0 -17.3538 23.022 0
          10.2452 11.2861 0 -4.52625 11.1981 0 -17.4894 30.6319 0 -9.825 32.6098 0
          -1.00936 46.9919 0 -3.64887 29.9716 0 -4.16646 22.371 0 -5.42178 40.1943 0
          3.87225 21.9388 0 8.07269 29.8833 0 -12.8337 3.32589 0 5.05803 19.9325 0
          5.45546 20.5828 0 5.02014 22.1758 0 15.3249 15.4007 0 -14.9523 22.3112 0
          -2.34937 23.5834 0 8.31114 15.2344 0 -15.6702 22.1322 0 -2.28982 38.4154 0
          14.8968 22.6605 0 -0.609299 45.1081 0 13.8577 3.56046 0 20.1871 26.5056 0
          7.23362 12.5356 0 24.4579 16.0913 0 4.02716 14.231 0 3.40058 14.7091 0
          0.53535 38.2527 0 -19.2423 24.998 0 -10.4074 33.2187 0 19.8311 24.1304 0
          -0.526086 16.7386 0 -5.19596 10.691 0 11.789 16.4036 0 10.9172 21.483 0
          11.4385 24.9901 0 -4.60794 33.9643 0 15.7222 30.713 0 -1.05227 25.4098 0
          -20.0565 18.3622 0 -18.81 28.1939 0 6.58953 40.1629 0 17.9084 25.6808 0
          -1.08751 32.65 0 12.0563 33.4277 0 -9.57163 17.4031 0 -18.0689 5.68771 0
          2.7336 24.8035 0 15.869 25.5207 0 16.096 11.0939 0 -7.68306 37.4028 0
          -17.2804 29.1484 0 10.9822 18.7778 0 -1.25499 9.79461 0 -1.30564 13.3539 0
          -3.37227 26.6112 0 -16.3809 10.2169 0 23.009 22.0335 0 -9.98106 36.1236 0
          6.79425 31.0358 0 -17.7378 29.6084 0 -0.364307 20.9604 0 15.787 21.6383 0
          5.60851 32.1887 0 2.33495 30.1622 0 23.1822 10.3015 0 1.6582 35.9385 0
          -4.48512 6.90213 0 -9.67303 11.8136 0 1.80174 12.2682 0 3.98663 20.5247 0
          -7.04958 7.77501 0 -1.45577 27.1968 0 -13.2002 12.8661 0 -1.45272 43.9406 0
          20.7607 10.5359 0 10.0133 29.0251 0 21.3372 11.7304 0 8.6782 14.5237 0
          2.66912 11.2249 0 12.4879 6.57792 0 -6.75204 40.8565 0 -1.74266 46.5152 0
          -10.4153 22.4709 0 -9.25978 13.3187 0 1.10291 27.1492 0 12.6575 9.29273 0
          -19.3788 20.0035 0 4.84443 32.0144 0 -5.3427 42.4221 0 4.34598 41.0557 0
          -11.0304 36.5726 0 -11.8709 2.71639 0 4.30922 9.87771 0 -11.9663 19.2727 0
          -7.1015 21.5611 0 -10.3271 27.2235 0 -1.68625 40.5003 0 2.07934 36.711 0
          -3.40177 8.29886 0 -7.32643 13.8156 0 4.66579 17.6346 0 -18.2863 17.974 0
          -13.8659 25.0717 0 12.3082 31.9927 0 -6.73391 29.9019 0 6.50363 9.55943 0
          4.41461 31.0205 0 -24.6849 16.5901 0 13.8166 25.2516 0 1.65069 6.98139 0
          -1.74195 24.6174 0 -2.52505 45.353 0 -8.89395 17.214 0 -8.39126 27.5745 0
          23.4956 17.8118 0 14.6533 25.534 0 5.33409 35.9823 0 22.5686 15.6702 0
          4.1855 43.7858 0 -0.242874 27.2266 0 20.0296 20.6063 0 -1.14121 0.863349 0
          -23.8278 20.4764 0 -6.42528 28.2372 0 0.987765 1.71555 0 7.48247 36.8341 0
          -12.1505 32.4385 0 22.9901 20.1187 0 6.91278 3.83954 0 -6.2686 8.66447 0
          17.9734 8.36899 0 1.14258 25.076 0 23.0859 12.7427 0 1.04276 44.0398 0
          -7.92736 38.9484 0 21.4173 17.1296 0 -17.3131 26.7513 0 17.9333 19.5864 0
          9.42128 26.1729 0 -13.9309 5.52995 0 -5.34868 41.6451 0 -0.829037 43.2532 0
          5.58284 2.57434 0 19.4482 13.32 0 -14.2963 14.5841 0 -8.99753 29.2286 0
          -13.075 26.5284 0 -12.2938 33.3672 0 12.0287 25.6385 0 -2.87137 27.4337 0
          -12.0193 35.5894 0 -16.6744 10.9904 0 8.16043 21.4181 0 8.15737 35.3616 0
          5.02862 10.2691 0 -3.00129 15.8385 0 14.2876 30.4115 0 -8.84167 8.95411 0
          -20.4454 10.8588 0 -7.8238 38.2753 0 -9.71228 19.6599 0 22.898 17.3259 0
          -22.3283 22.7698 0 -3.15051 40.7361 0 3.93031 29.319 0 16.6654 25.9613 0
          -0.155315 17.3051 0 14.2093 4.81072 0 -3.63693 4.35496 0 15.5126 12.2171 0
          -22.691 17.1267 0 -0.413505 7.44823 0 -7.86835 32.9703 0 1.0283 29.6168 0
          9.44317 21.9363 0 19.1899 27.8393 0 15.8569 18.3264 0 -17.8458 22.321 0
          -6.80269 18.4572 0 11.1248 15.0089 0 -15.6751 18.8593 0 0.797266 32.72 0
          -4.75874 35.7664 0 -24.3611 17.3035 0 6.87133 36.7395 0 4.3018 3.38867 0
          15.9843 28.4772 0 -10.7545 9.85344 0 13.7292 9.89687 0 -18.7853 11.2775 0
          -10.8802 26.7339 0 -21.7586 14.2607 0 -6.8098 5.11342 0 2.72589 22.7372 0
          -15.006 21.4744 0 -15.0069 8.26115 0 13.9003 28.8684 0 16.8049 30.5064 0
          -2.57552 5.28756 0 -24.8273 14.0454 0 10.44 17.0269 0 -13.8932 20.1497 0
          -9.3926 11.0038 0 -2.96727 20.0417 0 -3.39341 41.5342 0 2.59634 1.66039 0
          -0.156922 13.0509 0 14.9557 13.0347 0 -8.67658 24.3143 0 15.6831 7.36539 0
          9.96702 25.6825 0 2.72115 32.8482 0 21.5077 14.8007 0 8.21233 29.2801 0
          14.1019 31.0445 0 -7.65793 14.5418 0 -22.4697 14.9081 0 -3.65842 42.4651 0
          -4.24764 14.9916 0 14.1168 32.9104 0 1.85042 29.1326 0 -17.959 18.5555 0
          20.8898 7.67178 0 -7.08883 26.7008 0 -10.2714 11.7309 0 24.0972 11.7764 0
          0.725354 36.0533 0 3.02142 36.2179 0 -9.56919 35.4209 0 11.6812 2.82942 0
          8.74689 9.02234 0 3.35053 28.1236 0 -7.88166 27.1544 0 19.7794 12.6273 0
          -13.9653 12.9133 0 3.27492 20.1006 0 -9.89472 31.1803 0 -2.85693 39.6299 0
          1.19935 31.7894 0 11.0168 27.6354 0 -8.20476 39.5888 0 6.80456 7.16536 0
          -0.628211 3.07032 0 -24.1195 12.1577 0 12.5323 30.5098 0 9.88144 10.7884 0
          13.4921 14.9993 0 -16.8982 7.25347 0 -8.32219 15.5432 0 -14.0477 19.0567 0
          1.8178 40.4339 0 9.14082 37.336 0 -11.0188 10.3904 0 -1.28139 4.55407 0
          18.0751 18.8149 0 13.1905 6.29125 0 -7.19302 6.72747 0 15.4195 20.134 0
          -14.3172 3.74583 0 -8.02836 3.88484 0 -6.74816 16.2988 0 -15.9358 30.5666 0
          -13.8355 6.32254 0 17.752 14.2222 0 0.809141 7.2144 0 0.729076 3.69934 0
          -9.34622 20.6244 0 7.56205 21.5626 0 -14.7574 4.15728 0 21.7939 23.9561 0
          -11.8466 23.151 0 -14.8876 6.60006 0 7.96771 10.7327 0 5.69807 38.0168 0
          18.9851 16.0931 0 -7.14708 9.79778 0 8.54925 13.9541 0 1.04644 2.31023 0
          23.3874 13.3793 0 -9.33855 3.353 0 -4.7876 16.2309 0 -13.1126 13.6854 0
          6.2037 29.1978 0 3.94315 16.5453 0 -3.87484 26.1667 0 15.681 21.012 0
          -16.0776 31.4404 0 7.76189 30.5762 0 -0.348122 17.9778 0 -7.44016 16.8605 0
          12.8742 17.417 0 -8.51772 29.5896 0 6.2568 6.62704 0 17.4843 17.2994 0
          -13.0552 28.6799 0 1.2062 23.313 0 -4.93511 40.802 0 12.0565 8.91115 0
          -0.247255 9.52182 0 20.6345 22.7614 0 -20.4571 23.1003 0 -2.62597 31.3469 0
          -5.06566 0.911008 0 3.03958 23.4326 0 -20.334 26.132 0 6.73158 39.2388 0
          15.1499 16.3379 0 -18.7502 20.2565 0 22.9169 18.1365 0 -6.6618 10.2634 0
          -3.64165 2.32477 0 -11.2808 6.456 0 -10.6948 29.7777 0 -21.1944 12.2995 0
          -6.61394 34.4939 0 13.9543 19.1768 0 -15.465 19.7548 0 -22.3709 23.4185 0
          -0.759596 43.833 0 -3.95903 33.2351 0 -4.59009 31.678 0 3.67914 11.192 0
          -22.8465 13.3401 0 5.30813 34.0365 0 0.0425008 21.3851 0 11.621 7.22386 0
          6.24115 8.66769 0 19.7001 10.5672 0 23.5405 18.4313 0 22.0074 14.4262 0
          -3.85469 6.91 0 -11.4765 18.5692 0 -3.34417 24.1175 0 15.1143 25.137 0
          -11.7634 23.8127 0 -13.2313 12.2219 0 13.3905 9.34433 0 -5.49469 37.8038 0
          3.91279 0.640331 0 9.46075 34.9892 0 3.86497 37.6065 0 -9.96472 15.721 0
          5.68762 23.9949 0 -0.756867 46.2469 0 -23.1857 18.364 0 -5.23363 36.1196 0
          5.01694 32.6799 0 2.22812 33.299 0 6.77787 37.4045 0 -1.45773 19.1277 0
          -6.5978 35.0756 0
        </DataArray>
      </Points>
      <Lines>
        <DataArray type="Int32" Name="connectivity" NumberOfComponents="1" format="ascii">
          0 1 1 2 2 3 1 4 3 5 4 6
          5 7 1 8 5 9 6 10 7 11 8 12
          9 13 10 14 11 15 7 16 11 17 12 18
          13 19 14 20 15 21 16 22 17 23 18 24
          19 25 20 26 21 27 19 28 20 29 23 30
          24 31 25 32 26 33 27 34 22 35 26 36
          28 37 29 38 30 39 31 40 32 41 33 42
          34 43 22 44 30 45 36 46 37 47 38 48
          39 49 40 50 41 51 42 52 43 53 10 54
          34 55 41 56 45 57 46 58 47 59 48 60
          49 61 50 62 51 63 52 64 53 65 53 66
          55 67 57 68 58 69 59 70 60 71 61 72
          62 73 63 74 64 75 65 76 42 77 53 78
          59 79 64 80 66 81 67 82 68 83 69 84
          70 85 71 86 72 87 73 88 74 89 75 90
          76 91 25 92 78 93 79 94 81 95 82 96
          83 97 84 98 85 99 87 100 88 101 89 102
          90 103 91 104 50 105 56 106 62 107 73 108
          86 109 90 110 93 111 94 112 95 113 96 114
          97 115 98 116 99 117 100 118 101 119 102 120
          103 121 104 122 30 123 43 124 45 125 64 126
          66 127 106 128 109 129 110 130 111 131 113 132
          114 133 115 134 116 135 117 136 118 137 119 138
          120 139 121 140 122 141 76 142 80 143 85 144
          88 145 112 146 120 147 121 148 123 149 129 150
          130 151 131 152 132 153 133 154 135 155 136 156
          137 157 138 158 139 159 140 160 141 161 28 162
          31 163 56 164 61 165 74 166 118 167 120 168
          137 169 140 170 141 171 142 172 145 173 147 174
          148 175 150 176 151 177 152 178 153 179 154 180
          155 181 156 182 157 183 158 184 159 185 160 186
          161 187 12 188 78 189 80 190 85 191 104 192
          125 193 137 194 153 195 162 196 166 197 168 198
          169 199 170 200 171 201 174 202 175 203 177 204
          178 205 179 206 180 207 181 208 182 209 183 210
          184 211 185 212 186 213 187 214 54 215 65 216
          92 217 135 218 139 219 166 220 173 221 185 222
          192 223 194 224 195 225 197 226 200 227 201 228
          202 229 203 230 204 231 205 232 206 233 208 234
          209 235 210 236 211 237 212 238 213 239 214 240
          57 241 83 242 167 243 172 244 183 245 188 246
          213 247 214 248 222 249 223 250 224 251 226 252
          227 253 228 254 229 255 230 256 231 257 232 258
          233 259 234 260 235 261 236 262 237 263 238 264
          239 265 240 266 72 267 107 268 113 269 170 270
          174 271 179 272 208 273 211 274 214 275 226 276
          228 277 232 278 236 279 237 280 238 281 240 282
          242 283 243 284 245 285 248 286 249 287 250 288
          251 289 252 290 254 291 255 292 256 293 257 294
          258 295 259 296 260 297 261 298 262 299 263 300
          264 301 265 302 266 303 16 304 123 305 172 306
          201 307 243 308 255 309 259 310 271 311 279 312
          280 313 281 314 282 315 285 316 286 317 287 318
          288 319 291 320 292 321 293 322 294 323 295 324
          296 325 297 326 298 327 299 328 300 329 301 330
          302 331 303 332 38 333 70 334 128 335 165 336
          187 337 206 338 243 339 248 340 261 341 287 342
          295 343 301 344 310 345 312 346 314 347 315 348
          316 349 317 350 318 351 320 352 321 353 322 354
          323 355 324 356 325 357 326 358 327 359 328 360
          329 361 330 362 331 363 332 364 91 365 225 366
          247 367 261 368 267 369 281 370 289 371 300 372
          325 373 331 374 338 375 343 376 344 377 346 378
          347 379 348 380 349 381 350 382 351 383 352 384
          353 385 354 386 355 387 356 388 357 389 358 390
          359 391 360 392 361 393 362 394 363 395 364 396
          33 397 164 398 199 399 224 400 226 401 232 402
          275 403 301 404 302 405 310 406 322 407 327 408
          341 409 352 410 356 411 363 412 366 413 367 414
          373 415 374 416 375 417 376 418 377 419 378 420
          379 421 380 422 381 423 382 424 383 425 384 426
          385 427 386 428 387 429 388 430 389 431 390 432
          391 433 392 434 393 435 394 436 395 437 396 438
          126 439 131 440 143 441 152 442 192 443 251 444
          289 445 309 446 311 447 317 448 343 449 345 450
          362 451 370 452 374 453 383 454 392 455 393 456
          394 457 396 458 397 459 410 460 411 461 412 462
          414 463 416 464 419 465 420 466 421 467 422 468
          424 469 425 470 426 471 427 472 428 473 429 474
          430 475 431 476 432 477 433 478 434 479 435 480
          436 481 437 482 438 483 35 484 61 485 110 486
          131 487 132 488 142 489 253 490 272 491 278 492
          296 493 325 494 359 495 372 496 381 497 392 498
          422 499 430 500 434 501 437 502 448 503 453 504
          455 505 457 506 458 507 460 508 462 509 463 510
          464 511 465 512 466 513 468 514 469 515 470 516
          471 517 472 518 473 519 474 520 475 521 476 522
          477 523 478 524 479 525 480 526 481 527 482 528
          483 529 32 530 43 531 62 532 126 533 138 534
          192 535 197 536 254 537 328 538 360 539 365 540
          386 541 389 542 405 543 406 544 412 545 416 546
          456 547 462 548 469 549 473 550 475 551 483 552
          497 553 499 554 501 555 502 556 504 557 505 558
          506 559 507 560 508 561 509 562 510 563 511 564
          512 565 513 566 514 567 515 568 516 569 517 570
          518 571 519 572 520 573 521 574 522 575 523 576
          524 577 525 578 526 579 527 580 528 581 529 582
          165 583 191 584 250 585 266 586 308 587 344 588
          404 589 429 590 449 591 482 592 506 593 524 594
          527 595 528 596 533 597 539 598 542 599 549 600
          551 601 552 602 555 603 556 604 558 605 559 606
          560 607 561 608 562 609 565 610 567 611 568 612
          569 613 570 614 571 615 572 616 573 617 574 618
          575 619 577 620 578 621 579 622 580 623 581 624
          582 625 77 626 118 627 148 628 198 629 263 630
          284 631 318 632 353 633 452 634 485 635 486 636
          522 637 525 638 547 639 549 640 553 641 568 642
          578 643 591 644 592 645 594 646 595 647 596 648
          600 649 602 650 603 651 604 652 605 653 606 654
          607 655 608 656 609 657 610 658 611 659 612 660
          613 661 614 662 615 663 616 664 617 665 618 666
          619 667 620 668 621 669 622 670 623 671 624 672
          625 673 2 674 27 675 37 676 169 677 258 678
          269 679 380 680 455 681 474 682 500 683 503 684
          512 685 525 686 546 687 557 688 558 689 565 690
          568 691 572 692 575 693 591 694 625 695 633 696
          637 697 638 698 642 699 643 700 647 701 648 702
          650 703 651 704 653 705 654 706 655 707 657 708
          658 709 659 710 660 711 661 712 662 713 663 714
          665 715 666 716 667 717 668 718 669 719 671 720
          672 721 673 722 6 723 54 724 218 725 230 726
          294 727 319 728 422 729 428 730 444 731 470 732
          490 733 624 734 642 735 647 736 669 737 670 738
          672 739 675 740 683 741 685 742 691 743 695 744
          697 745 698 746 700 747 701 748 702 749 703 750
          704 751 705 752 706 753 707 754 709 755 710 756
          711 757 712 758 713 759 714 760 715 761 716 762
          717 763 718 764 719 765 720 766 721 767 722 768
          144 769 157 770 222 771 239 772 295 773 342 774
          403 775 405 776 446 777 471 778 504 779 514 780
          548 781 572 782 584 783 597 784 652 785 693 786
          701 787 716 788 720 789 731 790 735 791 737 792
          739 793 744 794 745 795 747 796 748 797 749 798
          750 799 751 800 753 801 754 802 756 803 757 804
          758 805 759 806 761 807 762 808 763 809 764 810
          765 811 766 812 767 813 768 814 217 815 257 816
          274 817 303 818 357 819 367 820 385 821 394 822
          409 823 423 824 448 825 519 826 586 827 597 828
          651 829 662 830 672 831 684 832 711 833 716 834
          718 835 763 836 767 837 768 838 788 839 792 840
          794 841 795 842 796 843 799 844 800 845 802 846
          803 847 804 848 805 849 806 850 807 851 808 852
          809 853 810 854 811 855 812 856 813 857 814 858
          95 859 121 860 158 861 209 862 350 863 403 864
          407 865 444 866 476 867 491 868 498 869 520 870
          532 871 542 872 554 873 576 874 608 875 629 876
          649 877 675 878 676 879 681 880 712 881 753 882
          779 883 789 884 796 885 804 886 811 887 814 888
          827 889 830 890 831 891 834 892 836 893 838 894
          840 895 841 896 842 897 843 898 844 899 845 900
          846 901 847 902 848 903 849 904 850 905 851 906
          852 907 853 908 854 909 855 910 856 911 858 912
          40 913 312 914 332 915 373 916 410 917 514 918
          583 919 600 920 630 921 641 922 650 923 700 924
          706 925 720 926 791 927 814 928 821 929 838 930
          853 931 855 932 875 933 886 934 887 935 888 936
          891 937 892 938 893 939 894 940 895 941 896 942
          897 943 898 944 899 945 900 946 901 947 902 948
          903 949 905 950 907 951 908 952 909 953 910 954
          912 955 2 956 246 957 294 958 345 959 413 960
          451 961 516 962 556 963 566 964 725 965 741 966
          746 967 766 968 778 969 797 970 851 971 891 972
          895 973 897 974 912 975 918 976 920 977 921 978
          930 979 931 980 934 981 936 982 939 983 940 984
          941 985 942 986 943 987 944 988 945 989 946 990
          947 991 948 992 949 993 950 994 951 995 952 996
          954 997 955 998 162 999 180 1000 200 1001 293 1002
          447 1003 508 1004 552 1005 567 1006 577 1007 677 1008
          741 1009 782 1010 795 1011 833 1012 850 1013 906 1014
          934 1015 947 1016 948 1017 955 1018 963 1019 974 1020
          975 1021 980 1022 981 1023 982 1024 984 1025 986 1026
          989 1027 990 1028 991 1029 992 1030 993 1031 994 1032
          995 1033 996 1034 997 1035 998 1036 424 1037 443 1038
          522 1039 571 1040 573 1041 686 1042 690 1043 717 1044
          833 1045 843 1046 875 1047 885 1048 902 1049 979 1050
          995 1051 1011 1052 1017 1053 1018 1054 1021 1055 1023 1056
          1024 1057 1025 1058 1026 1059 1027 1060 1028 1061 1029 1062
          1030 1063 1031 1064 1032 1065 1033 1066 1035 1067 1036 1068
          20 1069 299 1070 300 1071 312 1072 368 1073 411 1074
          512 1075 599 1076 666 1077 708 1078 737 1079 785 1080
          786 1081 801 1082 802 1083 805 1084 807 1085 847 1086
          876 1087 993 1088 994 1089 1029 1090 1030 1091 1036 1092
          1043 1093 1044 1094 1046 1095 1047 1096 1051 1097 1054 1098
          1055 1099 1057 1100 1059 1101 1060 1102 1062 1103 1063 1104
          1064 1105 1065 1106 1067 1107 1068 1108 19 1109 168 1110
          206 1111 317 1112 332 1113 346 1114 401 1115 460 1116
          496 1117 657 1118 692 1119 745 1120 797 1121 806 1122
          852 1123 864 1124 880 1125 894 1126 916 1127 944 1128
          964 1129 972 1130 997 1131 1013 1132 1049 1133 1053 1134
          1055 1135 1064 1136 1068 1137 1086 1138 1089 1139 1096 1140
          1098 1141 1099 1142 1100 1143 1101 1144 1102 1145 1103 1146
          1104 1147 1105 1148 1108 1149 161 1150 219 1151 244 1152
          258 1153 330 1154 489 1155 625 1156 641 1157 646 1158
          761 1159 767 1160 809 1161 839 1162 850 1163 914 1164
          943 1165 1023 1166 1033 1167 1057 1168 1090 1169 1108 1170
          1112 1171 1135 1172 1136 1173 1137 1174 1141 1175 1142 1176
          1143 1177 1144 1178 1145 1179 1146 1180 1147 1181 1149 1182
          50 1183 77 1184 129 1185 270 1186 321 1187 358 1188
          437 1189 467 1190 581 1191 621 1192 632 1193 659 1194
          705 1195 709 1196 776 1197 805 1198 849 1199 1053 1200
          1079 1201 1139 1202 1166 1203 1170 1204 1174 1205 1175 1206
          1176 1207 1177 1208 1180 1209 1182 1210 108 1211 225 1212
          241 1213 247 1214 262 1215 687 1216 729 1217 755 1218
          816 1219 829 1220 835 1221 888 1222 901 1223 907 1224
          923 1225 926 1226 927 1227 933 1228 970 1229 976 1230
          1018 1231 1045 1232 1077 1233 1120 1234 1133 1235 1170 1236
          1187 1237 1199 1238 1204 1239 1205 1240 1206 1241 1207 1242
          1208 1243 1210 1244 207 1245 372 1246 398 1247 418 1248
          570 1249 673 1250 732 1251 766 1252 798 1253 847 1254
          898 1255 942 1256 1068 1257 1095 1258 1111 1259 1133 1260
          1135 1261 1142 1262 1222 1263 1239 1264 1241 1265 1242 1266
          1244 1267 89 1268 146 1269 253 1270 324 1271 527 1272
          549 1273 611 1274 671 1275 682 1276 727 1277 729 1278
          782 1279 806 1280 939 1281 973 1282 983 1283 1008 1284
          1012 1285 1017 1286 1062 1287 1120 1288 1207 1289 1236 1290
          1240 1291 1264 1292 1267 1293 136 1294 155 1295 468 1296
          534 1297 599 1298 663 1299 736 1300 842 1301 846 1302
          892 1303 896 1304 901 1305 942 1306 1104 1307 1149 1308
          1233 1309 1237 1310 1244 1311 1268 1312 1281 1313 1291 1314
          1293 1315 89 1316 397 1317 417 1318 513 1319 571 1320
          1045 1321 1060 1322 1065 1323 1103 1324 1163 1325 1189 1326
          1222 1327 1234 1328 1315 1329 18 1330 106 1331 128 1332
          160 1333 374 1334 396 1335 425 1336 472 1337 579 1338
          594 1339 639 1340 654 1341 690 1342 830 1343 841 1344
          857 1345 875 1346 905 1347 906 1348 990 1349 991 1350
          1024 1351 1122 1352 1204 1353 1215 1354 1248 1355 1321 1356
          136 1357 139 1358 145 1359 362 1360 430 1361 447 1362
          470 1363 497 1364 758 1365 789 1366 822 1367 887 1368
          962 1369 1087 1370 1101 1371 1159 1372 1189 1373 1259 1374
          1294 1375 1307 1376 1354 1377 479 1378 490 1379 534 1380
          633 1381 689 1382 763 1383 1016 1384 1088 1385 1127 1386
          1129 1387 1139 1388 1154 1389 1161 1390 1343 1391 39 1392
          160 1393 176 1394 242 1395 468 1396 564 1397 566 1398
          813 1399 929 1400 1037 1401 1094 1402 1136 1403 1184 1404
          1210 1405 1238 1406 1262 1407 1289 1408 1311 1409 1356 1410
          101 1411 186 1412 260 1413 459 1414 727 1415 784 1416
          854 1417 959 1418 1060 1419 1115 1420 1140 1421 1156 1422
          1211 1423 1262 1424 1312 1425 1398 1426 122 1427 140 1428
          659 1429 724 1430 756 1431 768 1432 774 1433 867 1434
          883 1435 1076 1436 1117 1437 1207 1438 1209 1439 1289 1440
          1314 1441 24 1442 233 1443 315 1444 371 1445 469 1446
          686 1447 735 1448 923 1449 949 1450 1015 1451 1105 1452
          1118 1453 1145 1454 1148 1455 1167 1456 1193 1457 1245 1458
          1261 1459 1282 1460 1306 1461 1334 1462 1390 1463 207 1464
          602 1465 775 1466 834 1467 858 1468 885 1469 986 1470
          1013 1471 1046 1472 1085 1473 1300 1474 1370 1475 1392 1476
          233 1477 288 1478 350 1479 378 1480 453 1481 517 1482
          759 1483 856 1484 886 1485 911 1486 1023 1487 1091 1488
          1118 1489 1180 1490 1192 1491 1277 1492 1292 1493 1315 1494
          1324 1495 1333 1496 1422 1497 1436 1498 250 1499 274 1500
          553 1501 595 1502 719 1503 890 1504 1095 1505 1112 1506
          1173 1507 1191 1508 1231 1509 1264 1510 1345 1511 364 1512
          420 1513 561 1514 619 1515 713 1516 872 1517 889 1518
          1116 1519 1143 1520 1341 1521 1502 1522 98 1523 436 1524
          502 1525 631 1526 931 1527 952 1528 1017 1529 1086 1530
          1272 1531 1364 1532 1478 1533 1495 1534 134 1535 150 1536
          461 1537 528 1538 582 1539 743 1540 799 1541 835 1542
          985 1543 1069 1544 1167 1545 1195 1546 1235 1547 1320 1548
          1449 1549 1528 1550 35 1551 114 1552 149 1553 483 1554
          738 1555 887 1556 987 1557 1027 1558 1047 1559 1050 1560
          1066 1561 1123 1562 1165 1563 1179 1564 1296 1565 1340 1566
          1365 1567 1368 1568 210 1569 260 1570 304 1571 307 1572
          408 1573 475 1574 618 1575 699 1576 707 1577 1055 1578
          1066 1579 1134 1580 1178 1581 1401 1582 1470 1583 14 1584
          103 1585 195 1586 435 1587 824 1588 1375 1589 1546 1590
          93 1591 421 1592 975 1593 996 1594 1102 1595 1138 1596
          1350 1597 1554 1598 32 1599 100 1600 241 1601 369 1602
          668 1603 755 1604 960 1605 1042 1606 1114 1607 1291 1608
          1322 1609 1376 1610 1444 1611 1578 1612 75 1613 184 1614
          345 1615 480 1616 526 1617 541 1618 726 1619 1087 1620
          1108 1621 1115 1622 1126 1623 1274 1624 1343 1625 1412 1626
          419 1627 488 1628 616 1629 646 1630 752 1631 876 1632
          919 1633 932 1634 1224 1635 1267 1636 1285 1637 1401 1638
          1520 1639 1611 1640 1625 1641 135 1642 291 1643 320 1644
          352 1645 404 1646 638 1647 640 1648 868 1649 924 1650
          1054 1651 1081 1652 1210 1653 1380 1654 1406 1655 1458 1656
          1604 1657 132 1658 244 1659 955 1660 971 1661 1056 1662
          1084 1663 1499 1664 87 1665 408 1666 431 1667 697 1668
          899 1669 908 1670 920 1671 1019 1672 1128 1673 1181 1674
          1199 1675 1250 1676 1388 1677 262 1678 297 1679 499 1680
          1094 1681 1187 1682 1322 1683 1368 1684 1498 1685 124 1686
          540 1687 649 1688 1197 1689 1252 1690 1561 1691 1596 1692
          1684 1693 248 1694 620 1695 803 1696 1497 1697 1566 1698
          1593 1699 149 1700 199 1701 216 1702 291 1703 441 1704
          877 1705 958 1706 1240 1707 1337 1708 1516 1709 1617 1710
          1649 1711 81 1712 290 1713 1178 1714 1314 1715 1319 1716
          245 1717 438 1718 634 1719 972 1720 1083 1721 1208 1722
          1408 1723 1507 1724 116 1725 191 1726 360 1727 388 1728
          1077 1729 1092 1730 1593 1731 49 1732 157 1733 544 1734
          604 1735 621 1736 1132 1737 1162 1738 1425 1739 1431 1740
          1453 1741 1515 1742 740 1743 832 1744 1291 1745 1445 1746
          666 1747 755 1748 1044 1749 1260 1750 1299 1751 1440 1752
          438 1753 623 1754 674 1755 793 1756 927 1757 956 1758
          1030 1759 1349 1760 1366 1761 107 1762 267 1763 329 1764
          364 1765 622 1766 1239 1767 1455 1768 1522 1769 1556 1770
          606 1771 933 1772 965 1773 1581 1774 1149 1775 40 1776
          467 1777 687 1778 762 1779 792 1780 1061 1781 1234 1782
          1465 1783 1579 1784 265 1785 819 1786 992 1787 1552 1788
          585 1789 931 1790 1536 1791 1618 1792 1768 1793 538 1794
          787 1795 813 1796 1141 1797 1194 1798 1402 1799 1664 1800
          184 1801 305 1802 588 1803 1191 1804 1601 1805 1487 1806
          1497 1807 1514 1808 953 1809 1363 1810 752 1811 773 1812
          1573 1813 689 1814 930 1815 1306 1816 1741 1817 1759 1818
          398 1819 1161 1820 270 1821 452 1822 543 1823 1303 1824
          1373 1825 77 1826 348 1827 698 1828 1214 1829 1527 1830
          1550 1831 44 1832 708 1833 823 1834 967 1835 1008 1836
          1112 1837 1175 1838 18 1839 76 1840 264 1841 601 1842
          630 1843 745 1844 979 1845 1548 1846 1641 1847 1790 1848
          445 1849 645 1850 1206 1851 866 1852 1202 1853 1598 1854
          1041 1855 456 1856 735 1857 1701 1858 622 1859 858 1860
          984 1861 1097 1862 1297 1863 1589 1864 1624 1865 1747 1866
          467 1867 688 1868 775 1869 852 1870 1100 1871 1156 1872
          1288 1873 1455 1874 63 1875 304 1876 1010 1877 1563 1878
          1632 1879 632 1880 1413 1881 445 1882 505 1883 1261 1884
          1376 1885 1821 1886 16 1887 1272 1888 1614 1889 86 1890
          569 1891 1295 1892 439 1893 790 1894 910 1895 965 1896
          1389 1897 21 1898 196 1899 598 1900 1786 1901 1892 1902
          812 1903 1378 1904 273 1905 1294 1906 1495 1907 1524 1908
          1602 1909 1711 1910 1758 1911 1766 1912 84 1913 731 1914
          958 1915 1429 1916 1572 1917 1688 1918 1695 1919 1895 1920
          1596 1921 1800 1922 371 1923 454 1924 1779 1925 112 1926
          436 1927 845 1928 889 1929 1520 1930 219 1931 1213 1932
          926 1933 1085 1934 1549 1935 1069 1936 1518 1937 1014 1938
          1324 1939 1336 1940 1720 1941 1748 1942 1909 1943 215 1944
          103 1945 808 1946 826 1947 949 1948 962 1949 1590 1950
          1796 1951 1775 1952 1344 1953 1321 1954 96 1955 692 1956
          1305 1957 1694 1958 276 1959 769 1960 1587 1961 1748 1962
          1846 1963 149 1964 328 1965 424 1966 1749 1967 1042 1968
          1706 1969 1822 1970 1059 1971 1330 1972 1529 1973 1597 1974
          236 1975 1278 1976 1441 1977 1508 1978 1816 1979 1083 1980
          1126 1981 1169 1982 694 1983 1948 1984
        </DataArray>
        <DataArray type="Int32" Name="offsets" NumberOfComponents="1" format="ascii">
          2 4 6 8 10 12 14 16 18 20 22 24
          26 28 30 32 34 36 38 40 42 44 46 48
          50 52 54 56 58 60 62 64 66 68 70 72
          74 76 78 80 82 84 86 88 90 92 94 96
          98 100 102 104 106 108 110 112 114 116 118 120
          122 124 126 128 130 132 134 136 138 140 142 144
          146 148 150 152 154 156 158 160 162 164 166 168
          170 172 174 176 178 180 182 184 186 188 190 192
          194 196 198 200 202 204 206 208 210 212 214 216
          218 220 222 224 226 228 230 232 234 236 238 240
          242 244 246 248 250 252 254 256 258 260 262 264
          266 268 270 272 274 276 278 280 282 284 286 288
          290 292 294 296 298 300 302 304 306 308 310 312
          314 316 318 320 322 324 326 328 330 332 334 336
          338 340 342 344 346 348 350 352 354 356 358 360
          362 364 366 368 370 372 374 376 378 380 382 384
          386 388 390 392 394 396 398 400 402 404 406 408
          410 412 414 416 418 420 422 424 426 428 430 432
          434 436 438 440 442 444 446 448 450 452 454 456
          458 460 462 464 466 468 470 472 474 476 478 480
          482 484 486 488 490 492 494 496 498 500 502 504
          506 508 510 512 514 516 518 520 522 524 526 528
          530 532 534 536 538 540 542 544 546 548 550 552
          554 556 558 560 562 564 566 568 570 572 574 576
          578 580 582 584 586 588 590 592 594 596 598 600
          602 604 606 608 610 612 614 616 618 620 622 624
          626 628 630 632 634 636 638 640 642 644 646 648
          650 652 654 656 658 660 662 664 666 668 670 672
          674 676 678 680 682 684 686 688 690 692 694 696
          698 700 702 704 706 708 710 712 714 716 718 720
          722 724 726 728 730 732 734 736 738 740 742 744
          746 748 750 752 754 756 758 760 762 764 766 768
          770 772 774 776 778 780 782 784 786 788 790 792
          794 796 798 800 802 804 806 808 810 812 814 816
          818 820 822 824 826 828 830 832 834 836 838 840
          842 844 846 848 850 852 854 856 858 860 862 864
          866 868 870 872 874 876 878 880 882 884 886 888
          890 892 894 896 898 900 902 904 906 908 910 912
          914 916 918 920 922 924 926 928 930 932 934 936
          938 940 942 944 946 948 950 952 954 956 958 960
          962 964 966 968 970 972 974 976 978 980 982 984
          986 988 990 992 994 996 998 1000 1002 1004 1006 1008
          1010 1012 1014 1016 1018 1020 1022 1024 1026 1028 1030 1032
          1034 1036 1038 1040 1042 1044 1046 1048 1050 1052 1054 1056
          1058 1060 1062 1064 1066 1068 1070 1072 1074 1076 1078 1080
          1082 1084 1086 1088 1090 1092 1094 1096 1098 1100 1102 1104
          1106 1108 1110 1112 1114 1116 1118 1120 1122 1124 1126 1128
          1130 1132 1134 1136 1138 1140 1142 1144 1146 1148 1150 1152
          1154 1156 1158 1160 1162 1164 1166 1168 1170 1172 1174 1176
          1178 1180 1182 1184 1186 1188 1190 1192 1194 1196 1198 1200
          1202 1204 1206 1208 1210 1212 1214 1216 1218 1220 1222 1224
          1226 1228 1230 1232 1234 1236 1238 1240 1242 1244 1246 1248
          1250 1252 1254 1256 1258 1260 1262 1264 1266 1268 1270 1272
          1274 1276 1278 1280 1282 1284 1286 1288 1290 1292 1294 1296
          1298 1300 1302 1304 1306 1308 1310 1312 1314 1316 1318 1320
          1322 1324 1326 1328 1330 1332 1334 1336 1338 1340 1342 1344
          1346 1348 1350 1352 1354 1356 1358 1360 1362 1364 1366 1368
          1370 1372 1374 1376 1378 1380 1382 1384 1386 1388 1390 1392
          1394 1396 1398 1400 1402 1404 1406 1408 1410 1412 1414 1416
          1418 1420 1422 1424 1426 1428 1430 1432 1434 1436 1438 1440
          1442 1444 1446 1448 1450 1452 1454 1456 1458 1460 1462 1464
          1466 1468 1470 1472 1474 1476 1478 1480 1482 1484 1486 1488
          1490 1492 1494 1496 1498 1500 1502 1504 1506 1508 1510 1512
          1514 1516 1518 1520 1522 1524 1526 1528 1530 1532 1534 1536
          1538 1540 1542 1544 1546 1548 1550 1552 1554 1556 1558 1560
          1562 1564 1566 1568 1570 1572 1574 1576 1578 1580 1582 1584
          1586 1588 1590 1592 1594 1596 1598 1600 1602 1604 1606 1608
          1610 1612 1614 1616 1618 1620 1622 1624 1626 1628 1630 1632
          1634 1636 1638 1640 1642 1644 1646 1648 1650 1652 1654 1656
          1658 1660 1662 1664 1666 1668 1670 1672 1674 1676 1678 1680
          1682 1684 1686 1688 1690 1692 1694 1696 1698 1700 1702 1704
          1706 1708 1710 1712 1714 1716 1718 1720 1722 1724 1726 1728
          1730 1732 1734 1736 1738 1740 1742 1744 1746 1748 1750 1752
          1754 1756 1758 1760 1762 1764 1766 1768 1770 1772 1774 1776
          1778 1780 1782 1784 1786 1788 1790 1792 1794 1796 1798 1800
          1802 1804 1806 1808 1810 1812 1814 1816 1818 1820 1822 1824
          1826 1828 1830 1832 1834 1836 1838 1840 1842 1844 1846 1848
          1850 1852 1854 1856 1858 1860 1862 1864 1866 1868 1870 1872
          1874 1876 1878 1880 1882 1884 1886 1888 1890 1892 1894 1896
          1898 1900 1902 1904 1906 1908 1910 1912 1914 1916 1918 1920
          1922 1924 1926 1928 1930 1932 1934 1936 1938 1940 1942 1944
          1946 1948 1950 1952 1954 1956 1958 1960 1962 1964 1966 1968
          1970 1972 1974 1976 1978 1980 1982 1984 1986 1988 1990 1992
          1994 1996 1998 2000 2002 2004 2006 2008 2010 2012 2014 2016
          2018 2020 2022 2024 2026 2028 2030 2032 2034 2036 2038 2040
          2042 2044 2046 2048 2050 2052 2054 2056 2058 2060 2062 2064
          2066 2068 2070 2072 2074 2076 2078 2080 2082 2084 2086 2088
          2090 2092 2094 2096 2098 2100 2102 2104 2106 2108 2110 2112
          2114 2116 2118 2120 2122 2124 2126 2128 2130 2132 2134 2136
          2138 2140 2142 2144 2146 2148 2150 2152 2154 2156 2158 2160
          2162 2164 2166 2168 2170 2172 2174 2176 2178 2180 2182 2184
          2186 2188 2190 2192 2194 2196 2198 2200 2202 2204 2206 2208
          2210 2212 2214 2216 2218 2220 2222 2224 2226 2228 2230 2232
          2234 2236 2238 2240 2242 2244 2246 2248 2250 2252 2254 2256
          2258 2260 2262 2264 2266 2268 2270 2272 2274 2276 2278 2280
          2282 2284 2286 2288 2290 2292 2294 2296 2298 2300 2302 2304
          2306 2308 2310 2312 2314 2316 2318 2320 2322 2324 2326 2328
          2330 2332 2334 2336 2338 2340 2342 2344 2346 2348 2350 2352
          2354 2356 2358 2360 2362 2364 2366 2368 2370 2372 2374 2376
          2378 2380 2382 2384 2386 2388 2390 2392 2394 2396 2398 2400
          2402 2404 2406 2408 2410 2412 2414 2416 2418 2420 2422 2424
          2426 2428 2430 2432 2434 2436 2438 2440 2442 2444 2446 2448
          2450 2452 2454 2456 2458 2460 2462 2464 2466 2468 2470 2472
          2474 2476 2478 2480 2482 2484 2486 2488 2490 2492 2494 2496
          2498 2500 2502 2504 2506 2508 2510 2512 2514 2516 2518 2520
          2522 2524 2526 2528 2530 2532 2534 2536 2538 2540 2542 2544
          2546 2548 2550 2552 2554 2556 2558 2560 2562 2564 2566 2568
          2570 2572 2574 2576 2578 2580 2582 2584 2586 2588 2590 2592
          2594 2596 2598 2600 2602 2604 2606 2608 2610 2612 2614 2616
          2618 2620 2622 2624 2626 2628 2630 2632 2634 2636 2638 2640
          2642 2644 2646 2648 2650 2652 2654 2656 2658 2660 2662 2664
          2666 2668 2670 2672 2674 2676 2678 2680 2682 2684 2686 2688
          2690 2692 2694 2696 2698 2700 2702 2704 2706 2708 2710 2712
          2714 2716 2718 2720 2722 2724 2726 2728 2730 2732 2734 2736
          2738 2740 2742 2744 2746 2748 2750 2752 2754 2756 2758 2760
          2762 2764 2766 2768 2770 2772 2774 2776 2778 2780 2782 2784
          2786 2788 2790 2792 2794 2796 2798 2800 2802 2804 2806 2808
          2810 2812 2814 2816 2818 2820 2822 2824 2826 2828 2830 2832
          2834 2836 2838 2840 2842 2844 2846 2848 2850 2852 2854 2856
          2858 2860 2862 2864 2866 2868 2870 2872 2874 2876 2878 2880
          2882 2884 2886 2888 2890 2892 2894 2896 2898 2900 2902 2904
          2906 2908 2910 2912 2914 2916 2918 2920 2922 2924 2926 2928
          2930 2932 2934 2936 2938 2940 2942 2944 2946 2948 2950 2952
          2954 2956 2958 2960 2962 2964 2966 2968 2970 2972 2974 2976
          2978 2980 2982 2984 2986 2988 2990 2992 2994 2996 2998 3000
          3002 3004 3006 3008 3010 3012 3014 3016 3018 3020 3022 3024
          3026 3028 3030 3032 3034 3036 3038 3040 3042 3044 3046 3048
          3050 3052 3054 3056 3058 3060 3062 3064 3066 3068 3070 3072
          3074 3076 3078 3080 3082 3084 3086 3088 3090 3092 3094 3096
          3098 3100 3102 3104 3106 3108 3110 3112 3114 3116 3118 3120
          3122 3124 3126 3128 3130 3132 3134 3136 3138 3140 3142 3144
          3146 3148 3150 3152 3154 3156 3158 3160 3162 3164 3166 3168
          3170 3172 3174 3176 3178 3180 3182 3184 3186 3188 3190 3192
          3194 3196 3198 3200 3202 3204 3206 3208 3210 3212 3214 3216
          3218 3220 3222 3224 3226 3228 3230 3232 3234 3236 3238 3240
          3242 3244 3246 3248 3250 3252 3254 3256 3258 3260 3262 3264
          3266 3268 3270 3272 3274 3276 3278 3280 3282 3284 3286 3288
          3290 3292 3294 3296 3298 3300 3302 3304 3306 3308 3310 3312
          3314 3316 3318 3320 3322 3324 3326 3328 3330 3332 3334 3336
          3338 3340 3342 3344 3346 3348 3350 3352 3354 3356 3358 3360
          3362 3364 3366 3368 3370 3372 3374 3376 3378 3380 3382 3384
          3386 3388 3390 3392 3394 3396 3398 3400 3402 3404 3406 3408
          3410 3412 3414 3416 3418 3420 3422 3424 3426 3428 3430 3432
          3434 3436 3438 3440 3442 3444 3446 3448 3450 3452 3454 3456
          3458 3460 3462 3464 3466 3468 3470 3472 3474 3476 3478 3480
          3482 3484 3486 3488 3490 3492 3494 3496 3498 3500 3502 3504
          3506 3508 3510 3512 3514 3516 3518 3520 3522 3524 3526 3528
          3530 3532 3534 3536 3538 3540 3542 3544 3546 3548 3550 3552
          3554 3556 3558 3560 3562 3564 3566 3568 3570 3572 3574 3576
          3578 3580 3582 3584 3586 3588 3590 3592 3594 3596 3598 3600
          3602 3604 3606 3608 3610 3612 3614 3616 3618 3620 3622 3624
          3626 3628 3630 3632 3634 3636 3638 3640 3642 3644 3646 3648
          3650 3652 3654 3656 3658 3660 3662 3664 3666 3668 3670 3672
          3674 3676 3678 3680 3682 3684 3686 3688 3690 3692 3694 3696
          3698 3700 3702 3704 3706 3708 3710 3712 3714 3716 3718 3720
          3722 3724 3726 3728 3730 3732 3734 3736 3738 3740 3742 3744
          3746 3748 3750 3752 3754 3756 3758 3760 3762 3764 3766 3768
          3770 3772 3774 3776 3778 3780 3782 3784 3786 3788 3790 3792
          3794 3796 3798 3800 3802 3804 3806 3808 3810 3812 3814 3816
          3818 3820 3822 3824 3826 3828 3830 3832 3834 3836 3838 3840
          3842 3844 3846 3848 3850 3852 3854 3856 3858 3860 3862 3864
          3866 3868 3870 3872 3874 3876 3878 3880 3882 3884 3886 3888
          3890 3892 3894 3896 3898 3900 3902 3904 3906 3908 3910 3912
          3914 3916 3918 3920 3922 3924 3926 3928 3930 3932 3934 3936
          3938 3940 3942 3944 3946 3948 3950 3952 3954 3956 3958 3960
          3962 3964 3966 3968
        </DataArray>
      </Lines>
    </Piece>
  </PolyData>
</VTKFile>
